-------------------------------------------------------------------

ECUID: QRCode: VE01406231001, ECUID: 02020202002903E9
07-09-2023 13:31:04, CAN Module Found, COM11, Time: 0.0
07-09-2023 13:31:04, TestNo: 1) No test module found, Reconnect the test module and try again, Error Code: 1, Time: 0.02
-------------------------------------------------------------------

ECUID: QRCode: VE01406231001, ECUID: 02020202002903E9
07-09-2023 13:31:35, TestNo: 1) Daughter Board Test Passed, PASS Test Time: 0, Time: 0.0
