-------------------------------------------------------------------

ECUID: QRCode: VE01406231001, ECUID: 02020202002903E9
18-09-2023 19:56:05, From run Exception: 1, name 'PDI_MODE' is not defined, Time: 0.0
-------------------------------------------------------------------

ECUID: QRCode: VE01406231001, ECUID: 02020202002903E9
18-09-2023 19:57:10, CAN Module Found, COM11, Time: 0.0
18-09-2023 19:57:10, TestNo: 1) No test module found, Reconnect the test module and try again, Error Code: 1, Time: 0.03
-------------------------------------------------------------------

ECUID: QRCode: VE01406231001, ECUID: 02020202002903E9
18-09-2023 20:00:06, CAN Module Found, COM11, Time: 0.0
18-09-2023 20:00:06, TestNo: 1) No test module found, Reconnect the test module and try again, Error Code: 1, Time: 0.03
-------------------------------------------------------------------

ECUID: QRCode: VE01406231001, ECUID: 02020202002903E9
18-09-2023 20:05:26, CAN Module Found, COM11, Time: 0.0
18-09-2023 20:05:26, TestNo: 1) No test module found, Reconnect the test module and try again, Error Code: 1, Time: 0.02
-------------------------------------------------------------------

ECUID: QRCode: VE01406231002, ECUID: 02020202002903EA
18-09-2023 20:05:45, CAN Module Found, COM11, Time: 0.0
18-09-2023 20:05:45, TestNo: 1) No test module found, Reconnect the test module and try again, Error Code: 1, Time: 0.02
