-------------------------------------------------------------------

ECUID: QRCode: VE01406231001, ECUID: 02020202002903E9
02-09-2023 10:09:20, TestNo: 1) BMS CAN:, No CAN device found, Error Code: could not open port 'COM11': PermissionError(13, 'Access is denied.', None, 5), Time: 0.0
-------------------------------------------------------------------

ECUID: QRCode: VE01406231001, ECUID: 02020202002903E9
02-09-2023 10:10:39, TestNo: 1) BMS CAN:, No CAN device found, Error Code: could not open port 'COM11': PermissionError(13, 'Access is denied.', None, 5), Time: 0.0
-------------------------------------------------------------------

ECUID: QRCode: VE01406231001, ECUID: 02020202002903E9
02-09-2023 10:23:24, TestNo: 1) BMS CAN:, No CAN device found, Error Code: could not open port 'COM11': PermissionError(13, 'Access is denied.', None, 5), Time: 0.0
-------------------------------------------------------------------

ECUID: QRCode: VE01406231001, ECUID: 02020202002903E9
02-09-2023 10:24:25, TestNo: 1) BMS CAN:, No CAN device found, Error Code: could not open port 'COM11': PermissionError(13, 'Access is denied.', None, 5), Time: 0.0
-------------------------------------------------------------------

ECUID: QRCode: VE01406231001, ECUID: 02020202002903E9
02-09-2023 10:24:55, TestNo: 1) BMS CAN:, No CAN device found, Error Code: could not open port 'COM11': PermissionError(13, 'Access is denied.', None, 5), Time: 0.0
-------------------------------------------------------------------

ECUID: QRCode: VE01406231001, ECUID: 02020202002903E9
02-09-2023 10:27:32, TestNo: 1) BMS CAN:, No CAN device found, Error Code: could not open port 'COM11': PermissionError(13, 'Access is denied.', None, 5), Time: 0.0
-------------------------------------------------------------------

ECUID: QRCode: VE01406231001, ECUID: 02020202002903E9
02-09-2023 12:20:59, TestNo: 1) BMS CAN:, No CAN device found, Error Code: could not open port 'COM11': PermissionError(13, 'Access is denied.', None, 5), Time: 0.0
-------------------------------------------------------------------

ECUID: QRCode: VE01406231001, ECUID: 02020202002903E9
02-09-2023 12:24:47, TestNo: 1) BMS CAN:, No CAN device found, Error Code: could not open port 'COM11': PermissionError(13, 'Access is denied.', None, 5), Time: 0.0
-------------------------------------------------------------------

ECUID: QRCode: VE01406231001, ECUID: 02020202002903E9
02-09-2023 12:43:10, TestNo: 1) BMS CAN:, No CAN device found, Error Code: could not open port 'COM11': PermissionError(13, 'Access is denied.', None, 5), Time: 0.0
-------------------------------------------------------------------

ECUID: QRCode: VE01406231001, ECUID: 02020202002903E9
02-09-2023 12:43:28, CAN Module Found, COM11, Time: 0.0
02-09-2023 12:43:28, TestNo: 1) No test module found, Reconnect the test module and try again, Error Code: 1, Time: 0.02
-------------------------------------------------------------------

ECUID: QRCode: VE01406231001, ECUID: 02020202002903E9
02-09-2023 12:43:49, CAN Module Found, COM11, Time: 0.0
02-09-2023 12:43:49, FCTBoard Found , COM34 - USB-SERIAL CH340 (COM34), Time: 0.0
02-09-2023 12:43:49, TestNo: 1) initTestSetup, PASS, Time: 0.04
02-09-2023 12:44:02, TestNo: 2) AudioVisual, Failed 0 1, Time: 12.76
02-09-2023 12:44:02, TestNo: 3) BMS Test Failed, Failed Test Count: 1 Test Time: 12.8s, Time: 0.0
-------------------------------------------------------------------

ECUID: QRCode: VE01406231001, ECUID: 02020202002903E9
02-09-2023 12:46:49, CAN Module Found, COM11, Time: 0.0
02-09-2023 12:46:49, FCTBoard Found , COM34 - USB-SERIAL CH340 (COM34), Time: 0.0
02-09-2023 12:46:49, TestNo: 1) initTestSetup, PASS, Time: 0.04
02-09-2023 12:47:10, TestNo: 2) AudioVisual, Timeout Failed, Time: 21.49
02-09-2023 12:47:10, TestNo: 3) BMS Test Failed, Failed Test Count: 1 Test Time: 21.53s, Time: 0.0
-------------------------------------------------------------------

ECUID: QRCode: VE01406231001, ECUID: 02020202002903E9
02-09-2023 12:51:21, CAN Module Found, COM11, Time: 0.0
02-09-2023 12:51:21, FCTBoard Found , COM34 - USB-SERIAL CH340 (COM34), Time: 0.0
02-09-2023 12:51:21, TestNo: 1) initTestSetup, PASS, Time: 0.03
02-09-2023 12:51:37, TestNo: 2) AudioVisual, User did not responded to all values, Time: 15.94
02-09-2023 12:51:37, TestNo: 3) BMS Test Failed, Failed Test Count: 1 Test Time: 15.97s, Time: 0.0
-------------------------------------------------------------------

ECUID: QRCode: VE01406231001, ECUID: 02020202002903E9
02-09-2023 12:59:40, CAN Module Found, COM11, Time: 0.0
02-09-2023 12:59:40, FCTBoard Found , COM34 - USB-SERIAL CH340 (COM34), Time: 0.0
02-09-2023 12:59:40, TestNo: 1) initTestSetup, PASS, Time: 0.03
02-09-2023 12:59:41, TestNo: 2) AudioVisual, User did not responded to all values, Time: 1.03
02-09-2023 12:59:41, TestNo: 3) BMS Test Failed, Failed Test Count: 1 Test Time: 1.06s, Time: 0.0
-------------------------------------------------------------------

ECUID: QRCode: VE01406231001, ECUID: 02020202002903E9
02-09-2023 12:59:54, CAN Module Found, COM11, Time: 0.0
02-09-2023 12:59:54, FCTBoard Found , COM34 - USB-SERIAL CH340 (COM34), Time: 0.0
02-09-2023 12:59:54, TestNo: 1) initTestSetup, PASS, Time: 0.03
02-09-2023 12:59:56, TestNo: 2) AudioVisual, PASS, Time: 2.61
02-09-2023 12:59:56, TestNo: 3) BMS Test Passed, PASS Test Time: 2.64, Time: 0.0
-------------------------------------------------------------------

ECUID: QRCode: VE01406231002, ECUID: 02020202002903EA
02-09-2023 13:00:01, CAN Module Found, COM11, Time: 0.0
02-09-2023 13:00:01, FCTBoard Found , COM34 - USB-SERIAL CH340 (COM34), Time: 0.0
02-09-2023 13:00:01, TestNo: 1) initTestSetup, PASS, Time: 0.03
02-09-2023 13:00:05, TestNo: 2) AudioVisual, Failed 0 0, Time: 4.44
02-09-2023 13:00:05, TestNo: 3) BMS Test Failed, Failed Test Count: 1 Test Time: 4.47s, Time: 0.0
-------------------------------------------------------------------

ECUID: QRCode: VE01406231001, ECUID: 02020202002903E9
02-09-2023 13:01:52, CAN Module Found, COM11, Time: 0.0
02-09-2023 13:01:52, FCTBoard Found , COM34 - USB-SERIAL CH340 (COM34), Time: 0.0
02-09-2023 13:01:52, TestNo: 1) initTestSetup, PASS, Time: 0.04
02-09-2023 13:01:55, TestNo: 2) AudioVisual, Failed 0 0, Time: 3.67
02-09-2023 13:01:55, TestNo: 3) BMS Test Failed, Failed Test Count: 1 Test Time: 3.71s, Time: 0.0
-------------------------------------------------------------------

ECUID: QRCode: VE01406231002, ECUID: 02020202002903EA
02-09-2023 13:02:01, CAN Module Found, COM11, Time: 0.0
02-09-2023 13:02:01, FCTBoard Found , COM34 - USB-SERIAL CH340 (COM34), Time: 0.0
02-09-2023 13:02:01, TestNo: 1) initTestSetup, PASS, Time: 0.04
02-09-2023 13:02:04, TestNo: 2) AudioVisual, Failed 1 0, Time: 2.86
02-09-2023 13:02:04, TestNo: 3) BMS Test Failed, Failed Test Count: 1 Test Time: 2.9s, Time: 0.0
-------------------------------------------------------------------

ECUID: QRCode: VE01406231003, ECUID: 02020202002903EB
02-09-2023 13:02:10, CAN Module Found, COM11, Time: 0.0
02-09-2023 13:02:10, FCTBoard Found , COM34 - USB-SERIAL CH340 (COM34), Time: 0.0
02-09-2023 13:02:10, TestNo: 1) initTestSetup, PASS, Time: 0.03
02-09-2023 13:02:12, TestNo: 2) AudioVisual, PASS, Time: 1.8
02-09-2023 13:02:12, TestNo: 3) BMS Test Passed, PASS Test Time: 1.83, Time: 0.0
-------------------------------------------------------------------

ECUID: QRCode: VE01406231004, ECUID: 02020202002903EC
02-09-2023 13:02:17, CAN Module Found, COM11, Time: 0.0
02-09-2023 13:02:17, FCTBoard Found , COM34 - USB-SERIAL CH340 (COM34), Time: 0.0
02-09-2023 13:02:17, TestNo: 1) initTestSetup, PASS, Time: 0.04
02-09-2023 13:02:19, TestNo: 2) AudioVisual, Failed 0 0, Time: 1.83
02-09-2023 13:02:19, TestNo: 3) BMS Test Failed, Failed Test Count: 1 Test Time: 1.87s, Time: 0.0
-------------------------------------------------------------------

ECUID: QRCode: VE01406231005, ECUID: 02020202002903ED
02-09-2023 13:03:03, CAN Module Found, COM11, Time: 0.0
02-09-2023 13:03:03, FCTBoard Found , COM34 - USB-SERIAL CH340 (COM34), Time: 0.0
02-09-2023 13:03:03, TestNo: 1) initTestSetup, PASS, Time: 0.04
02-09-2023 13:03:09, TestNo: 2) AudioVisual, Failed 1 0, Time: 6.28
02-09-2023 13:03:09, TestNo: 3) BMS Test Failed, Failed Test Count: 1 Test Time: 6.32s, Time: 0.0
-------------------------------------------------------------------

ECUID: QRCode: VE01406231001, ECUID: 02020202002903E9
02-09-2023 13:12:46, CAN Module Found, COM11, Time: 0.0
02-09-2023 13:12:46, FCTBoard Found , COM34 - USB-SERIAL CH340 (COM34), Time: 0.0
02-09-2023 13:12:46, TestNo: 1) initTestSetup, PASS, Time: 0.03
02-09-2023 13:13:05, TestNo: 2) AudioVisual, PASS, Time: 19.39
02-09-2023 13:13:05, TestNo: 3) BMS Test Passed, PASS Test Time: 19.42, Time: 0.0
-------------------------------------------------------------------

ECUID: QRCode: VE01406231002, ECUID: 02020202002903EA
02-09-2023 13:13:09, CAN Module Found, COM11, Time: 0.0
02-09-2023 13:13:09, FCTBoard Found , COM34 - USB-SERIAL CH340 (COM34), Time: 0.0
02-09-2023 13:13:09, TestNo: 1) initTestSetup, PASS, Time: 0.03
02-09-2023 13:13:14, TestNo: 2) AudioVisual, Failed 1 0, Time: 4.46
02-09-2023 13:13:14, TestNo: 3) BMS Test Failed, Failed Test Count: 1 Test Time: 4.49s, Time: 0.0
-------------------------------------------------------------------

ECUID: QRCode: VE01406231003, ECUID: 02020202002903EB
02-09-2023 13:13:19, CAN Module Found, COM11, Time: 0.0
02-09-2023 13:13:19, FCTBoard Found , COM34 - USB-SERIAL CH340 (COM34), Time: 0.0
02-09-2023 13:13:19, TestNo: 1) initTestSetup, PASS, Time: 0.03
02-09-2023 13:13:22, TestNo: 2) AudioVisual, Failed 1 0, Time: 2.87
02-09-2023 13:13:22, TestNo: 3) BMS Test Failed, Failed Test Count: 1 Test Time: 2.9s, Time: 0.0
-------------------------------------------------------------------

ECUID: QRCode: VE01406231004, ECUID: 02020202002903EC
02-09-2023 13:13:28, CAN Module Found, COM11, Time: 0.0
02-09-2023 13:13:28, FCTBoard Found , COM34 - USB-SERIAL CH340 (COM34), Time: 0.0
02-09-2023 13:13:28, TestNo: 1) initTestSetup, PASS, Time: 0.03
02-09-2023 13:13:30, TestNo: 2) AudioVisual, Failed 0 1, Time: 2.35
02-09-2023 13:13:30, TestNo: 3) BMS Test Failed, Failed Test Count: 1 Test Time: 2.38s, Time: 0.0
-------------------------------------------------------------------

ECUID: QRCode: VE01406231005, ECUID: 02020202002903ED
02-09-2023 13:13:38, CAN Module Found, COM11, Time: 0.0
02-09-2023 13:13:38, FCTBoard Found , COM34 - USB-SERIAL CH340 (COM34), Time: 0.0
02-09-2023 13:13:38, TestNo: 1) initTestSetup, PASS, Time: 0.04
02-09-2023 13:13:58, TestNo: 2) AudioVisual, Timeout Failed, Time: 20.0
02-09-2023 13:13:58, TestNo: 3) BMS Test Failed, Failed Test Count: 1 Test Time: 20.04s, Time: 0.0
-------------------------------------------------------------------

ECUID: QRCode: VE01406231006, ECUID: 02020202002903EE
02-09-2023 13:14:28, CAN Module Found, COM11, Time: 0.0
02-09-2023 13:14:28, FCTBoard Found , COM34 - USB-SERIAL CH340 (COM34), Time: 0.0
02-09-2023 13:14:28, TestNo: 1) initTestSetup, PASS, Time: 0.03
02-09-2023 13:14:48, TestNo: 2) AudioVisual, Timeout Failed, Time: 20.25
02-09-2023 13:14:48, TestNo: 3) BMS Test Failed, Failed Test Count: 1 Test Time: 20.28s, Time: 0.0
-------------------------------------------------------------------

ECUID: QRCode: VE01406231007, ECUID: 02020202002903EF
02-09-2023 13:14:56, CAN Module Found, COM11, Time: 0.0
02-09-2023 13:14:56, FCTBoard Found , COM34 - USB-SERIAL CH340 (COM34), Time: 0.0
02-09-2023 13:14:56, TestNo: 1) initTestSetup, PASS, Time: 0.03
02-09-2023 13:15:12, TestNo: 2) AudioVisual, PASS, Time: 16.53
02-09-2023 13:15:12, TestNo: 3) BMS Test Passed, PASS Test Time: 16.56, Time: 0.0
-------------------------------------------------------------------

ECUID: QRCode: VE01406231008, ECUID: 02020202002903F0
02-09-2023 13:15:22, CAN Module Found, COM11, Time: 0.0
02-09-2023 13:15:22, FCTBoard Found , COM34 - USB-SERIAL CH340 (COM34), Time: 0.0
02-09-2023 13:15:22, TestNo: 1) initTestSetup, PASS, Time: 0.03
02-09-2023 13:15:42, TestNo: 2) AudioVisual, Timeout Failed, Time: 20.16
02-09-2023 13:15:42, TestNo: 3) BMS Test Failed, Failed Test Count: 1 Test Time: 20.19s, Time: 0.0
-------------------------------------------------------------------

ECUID: QRCode: VE01406231009, ECUID: 02020202002903F1
02-09-2023 13:16:01, CAN Module Found, COM11, Time: 0.0
02-09-2023 13:16:01, FCTBoard Found , COM34 - USB-SERIAL CH340 (COM34), Time: 0.0
02-09-2023 13:16:01, TestNo: 1) initTestSetup, PASS, Time: 0.04
02-09-2023 13:16:21, TestNo: 2) AudioVisual, Timeout Failed, Time: 20.26
02-09-2023 13:16:21, TestNo: 3) BMS Test Failed, Failed Test Count: 1 Test Time: 20.3s, Time: 0.0
-------------------------------------------------------------------

ECUID: QRCode: VE01406231001, ECUID: 02020202002903E9
02-09-2023 13:19:06, CAN Module Found, COM11, Time: 0.0
02-09-2023 13:19:06, FCTBoard Found , COM34 - USB-SERIAL CH340 (COM34), Time: 0.0
02-09-2023 13:19:06, TestNo: 1) initTestSetup, PASS, Time: 0.04
02-09-2023 13:19:26, TestNo: 2) AudioVisual, Timeout Failed, Time: 20.02
02-09-2023 13:19:26, TestNo: 3) BMS Test Failed, Failed Test Count: 1 Test Time: 20.06s, Time: 0.0
-------------------------------------------------------------------

ECUID: QRCode: VE01406231001, ECUID: 02020202002903E9
02-09-2023 13:23:31, CAN Module Found, COM11, Time: 0.0
02-09-2023 13:23:31, FCTBoard Found , COM34 - USB-SERIAL CH340 (COM34), Time: 0.0
02-09-2023 13:23:31, TestNo: 1) initTestSetup, PASS, Time: 0.04
02-09-2023 13:23:51, TestNo: 2) AudioVisual, Timeout Failed, Time: 20.03
02-09-2023 13:23:51, TestNo: 3) BMS Test Failed, Failed Test Count: 1 Test Time: 20.07s, Time: 0.0
-------------------------------------------------------------------

ECUID: QRCode: VE01406231001, ECUID: 02020202002903E9
02-09-2023 13:34:55, CAN Module Found, COM11, Time: 0.0
02-09-2023 13:34:55, FCTBoard Found , COM34 - USB-SERIAL CH340 (COM34), Time: 0.0
02-09-2023 13:34:55, TestNo: 1) initTestSetup, PASS, Time: 0.04
02-09-2023 13:34:57, TestNo: 2) AudioVisual, PASS, Time: 2.12
02-09-2023 13:34:57, TestNo: 3) BMS Test Passed, PASS Test Time: 2.16, Time: 0.0
-------------------------------------------------------------------

ECUID: QRCode: VE01406231001, ECUID: 02020202002903E9
02-09-2023 13:36:00, CAN Module Found, COM11, Time: 0.0
02-09-2023 13:36:00, FCTBoard Found , COM34 - USB-SERIAL CH340 (COM34), Time: 0.0
02-09-2023 13:36:00, TestNo: 1) initTestSetup, PASS, Time: 0.03
02-09-2023 13:36:21, TestNo: 2) AudioVisual, Timeout Failed, Time: 20.19
02-09-2023 13:36:21, TestNo: 3) BMS Test Failed, Failed Test Count: 1 Test Time: 20.22s, Time: 0.0
-------------------------------------------------------------------

ECUID: QRCode: VE01406231001, ECUID: 02020202002903E9
02-09-2023 13:36:42, CAN Module Found, COM11, Time: 0.0
02-09-2023 13:36:42, FCTBoard Found , COM34 - USB-SERIAL CH340 (COM34), Time: 0.0
02-09-2023 13:36:42, TestNo: 1) initTestSetup, PASS, Time: 0.04
02-09-2023 13:37:03, TestNo: 2) AudioVisual, Timeout Failed, Time: 20.1
02-09-2023 13:37:03, TestNo: 3) BMS Test Failed, Failed Test Count: 1 Test Time: 20.14s, Time: 0.0
-------------------------------------------------------------------

ECUID: QRCode: VE01406231001, ECUID: 02020202002903E9
02-09-2023 13:37:44, CAN Module Found, COM11, Time: 0.0
02-09-2023 13:37:44, FCTBoard Found , COM34 - USB-SERIAL CH340 (COM34), Time: 0.0
02-09-2023 13:37:44, TestNo: 1) initTestSetup, PASS, Time: 0.03
02-09-2023 13:38:01, TestNo: 2) AudioVisual, Failed 1 0, Time: 16.72
02-09-2023 13:38:01, TestNo: 3) BMS Test Failed, Failed Test Count: 1 Test Time: 16.75s, Time: 0.0
-------------------------------------------------------------------

ECUID: QRCode: VE01406231002, ECUID: 02020202002903EA
02-09-2023 13:38:06, CAN Module Found, COM11, Time: 0.0
02-09-2023 13:38:06, FCTBoard Found , COM34 - USB-SERIAL CH340 (COM34), Time: 0.0
02-09-2023 13:38:06, TestNo: 1) initTestSetup, PASS, Time: 0.03
02-09-2023 13:38:08, TestNo: 2) AudioVisual, PASS, Time: 2.35
02-09-2023 13:38:08, TestNo: 3) BMS Test Passed, PASS Test Time: 2.38, Time: 0.0
-------------------------------------------------------------------

ECUID: QRCode: VE01406231003, ECUID: 02020202002903EB
02-09-2023 13:38:13, CAN Module Found, COM11, Time: 0.0
02-09-2023 13:38:13, FCTBoard Found , COM34 - USB-SERIAL CH340 (COM34), Time: 0.0
02-09-2023 13:38:13, TestNo: 1) initTestSetup, PASS, Time: 0.04
02-09-2023 13:38:15, TestNo: 2) AudioVisual, Failed 0 1, Time: 2.6
02-09-2023 13:38:15, TestNo: 3) BMS Test Failed, Failed Test Count: 1 Test Time: 2.64s, Time: 0.0
-------------------------------------------------------------------

ECUID: QRCode: VE01406231004, ECUID: 02020202002903EC
02-09-2023 13:38:20, CAN Module Found, COM11, Time: 0.0
02-09-2023 13:38:20, FCTBoard Found , COM34 - USB-SERIAL CH340 (COM34), Time: 0.0
02-09-2023 13:38:20, TestNo: 1) initTestSetup, PASS, Time: 0.04
02-09-2023 13:38:22, TestNo: 2) AudioVisual, PASS, Time: 2.35
02-09-2023 13:38:22, TestNo: 3) BMS Test Passed, PASS Test Time: 2.39, Time: 0.0
-------------------------------------------------------------------

ECUID: QRCode: VE01406231005, ECUID: 02020202002903ED
02-09-2023 13:38:27, CAN Module Found, COM11, Time: 0.0
02-09-2023 13:38:27, FCTBoard Found , COM34 - USB-SERIAL CH340 (COM34), Time: 0.0
02-09-2023 13:38:27, TestNo: 1) initTestSetup, PASS, Time: 0.04
02-09-2023 13:38:47, TestNo: 2) AudioVisual, Timeout Failed, Time: 20.24
02-09-2023 13:38:47, TestNo: 3) BMS Test Failed, Failed Test Count: 1 Test Time: 20.28s, Time: 0.0
