-------------------------------------------------------------------

ECUID: QRCode: VE01406231001, ECUID: 02020202002903E9
17-08-2023 14:01:33, CAN Module Found, COM11, Time: 0.0
17-08-2023 14:01:33, CC Load Present , 1, Time: 0.0
17-08-2023 14:01:33, FCTBoard Found , COM37 - USB Serial Device (COM37), Time: 0.0
17-08-2023 14:01:34, TestNo: 1) connectJlink JLINK Found, PASS, Time: 0.4
17-08-2023 14:01:34, From run Exception: 2, 'testWorker' object has no attribute 'Buzzer', Time: 0.0
