Timestamp, QRCode, ECUID,initTestSetup, AudioVisual, Result, 
19-09-2023 13:00:37, VE01406231001, 0x02020202002903E9, Reconnect the test module and try again, Error Code: 1, 
19-09-2023 18:47:51, VE01406231001, 0x02020202002903E9, Reconnect the test module and try again, Error Code: 1, 
