Timestamp, QRCode, ECUID,initTestSetup, Buzzer, Display, BootMode, CodeFlash, CodeVerify, BLE, Result, 
19-08-2023 14:24:04, VE01406231001, 0x02020202002903E9, PASS, 
19-08-2023 14:28:50, VE01406231001, 0x02020202002903E9, PASS, 
19-08-2023 14:46:06, VE01406231001, 0x02020202002903E9, PASS, 
19-08-2023 14:47:05, VE01406231001, 0x02020202002903E9, PASS, 
19-08-2023 14:47:34, VE01406231001, 0x02020202002903E9, PASS, 
19-08-2023 14:49:58, VE01406231001, 0x02020202002903E9, PASS, 
19-08-2023 14:51:58, VE01406231001, 0x02020202002903E9, PASS, 
19-08-2023 14:53:12, VE01406231001, 0x02020202002903E9, PASS, 
19-08-2023 14:53:34, VE01406231001, 0x02020202002903E9, PASS, 
19-08-2023 14:53:52, VE01406231001, 0x02020202002903E9, PASS, 
19-08-2023 14:55:21, VE01406231001, 0x02020202002903E9, PASS, 
19-08-2023 14:55:52, VE01406231001, 0x02020202002903E9, PASS, 
19-08-2023 14:56:17, VE01406231001, 0x02020202002903E9, PASS, 
19-08-2023 14:56:48, VE01406231001, 0x02020202002903E9, PASS, 
19-08-2023 14:57:10, VE01406231001, 0x02020202002903E9, PASS, 
19-08-2023 14:59:26, VE01406231001, 0x02020202002903E9, PASS, 
19-08-2023 15:34:16, VE01406231001, 0x02020202002903E9, PASS, 
19-08-2023 15:35:51, VE01406231001, 0x02020202002903E9, PASS, 
19-08-2023 15:36:08, VE01406231001, 0x02020202002903E9, PASS, 
19-08-2023 15:36:51, VE01406231001, 0x02020202002903E9, PASS, 
19-08-2023 15:37:15, VE01406231001, 0x02020202002903E9, PASS, 
19-08-2023 15:45:31, VE01406231001, 0x02020202002903E9, PASS, 
19-08-2023 15:45:48, VE01406231001, 0x02020202002903E9, PASS, 
19-08-2023 15:46:05, VE01406231001, 0x02020202002903E9, PASS, 
19-08-2023 15:47:03, VE01406231001, 0x02020202002903E9, PASS, 
19-08-2023 15:47:27, VE01406231001, 0x02020202002903E9, PASS, 
19-08-2023 15:47:42, VE01406231001, 0x02020202002903E9, PASS, 
19-08-2023 15:48:20, VE01406231001, 0x02020202002903E9, PASS, 
19-08-2023 15:53:31, VE01406231001, 0x02020202002903E9, PASS, 
19-08-2023 15:53:44, VE01406231001, 0x02020202002903E9, PASS, 
19-08-2023 15:54:03, VE01406231001, 0x02020202002903E9, PASS, 
19-08-2023 15:57:06, VE01406231001, 0x02020202002903E9, PASS, 
19-08-2023 15:58:15, VE01406231001, 0x02020202002903E9, PASS, 
19-08-2023 15:59:53, VE01406231001, 0x02020202002903E9, PASS, 
19-08-2023 16:05:34, VE01406231001, 0x02020202002903E9, PASS, 
19-08-2023 16:06:42, VE01406231001, 0x02020202002903E9, PASS, 
19-08-2023 16:07:15, VE01406231001, 0x02020202002903E9, PASS, 
19-08-2023 16:07:35, VE01406231001, 0x02020202002903E9, PASS, 
19-08-2023 16:08:31, VE01406231001, 0x02020202002903E9, PASS, 
19-08-2023 16:09:07, VE01406231001, 0x02020202002903E9, PASS, 
19-08-2023 16:09:31, VE01406231001, 0x02020202002903E9, PASS, 
19-08-2023 16:16:29, VE01406231001, 0x02020202002903E9, PASS, 
19-08-2023 16:22:47, VE01406231001, 0x02020202002903E9, PASS, 
19-08-2023 16:24:16, VE01406231001, 0x02020202002903E9, PASS, 
19-08-2023 16:24:42, VE01406231001, 0x02020202002903E9, PASS, 
19-08-2023 16:25:01, VE01406231001, 0x02020202002903E9, PASS, 
19-08-2023 16:25:22, VE01406231001, 0x02020202002903E9, PASS, 
19-08-2023 16:28:27, VE01406231001, 0x02020202002903E9, PASS, 
