Timestamp, QRCode, ECUID,initTestSetup, flashTestcode, pingBMS, initAFEs, norFlashEEPROM, flashECUID, currentCalibration, CANStandByPin, mcuFlash, bmsDataValidation, Result, 
29-07-2023 10:51:48, VE01406231001, 0x02020202002903E9, PASS, PASS, PASS, PASS, PASS, PASS 02020202 002903E9, PASS G: 1057 _ O: 5289, PASS, PASS, 
29-07-2023 13:09:07, VE01406231001, 0x02020202002903E9, PASS, PASS, PASS, PASS, PASS, PASS 02020202 002903E9, PASS G: 1057 _ O: 13742, PASS, PASS, Accuracy Error EC: 30, Failed Test Count: 1 Test Time: 32.26s, 
29-07-2023 13:39:39, VE01406231001, 0x02020202002903E9, PASS, PASS, PASS, PASS, PASS, PASS 02020202 002903E9, PASS G: 1056 _ O: 22179, PASS, PASS, Accuracy Error EC: 27, Failed Test Count: 1 Test Time: 30.87s, 
29-07-2023 13:46:36, VE01406231001, 0x02020202002903E9, PASS, PASS, PASS, PASS, PASS, PASS 02020202 002903E9, PASS G: 1058 _ O: 5293, PASS, PASS, Accuracy Error EC: 30, Failed Test Count: 1 Test Time: 32.17s, 
29-07-2023 13:50:57, VE01406231001, 0x02020202002903E9, PASS, PASS, PASS, PASS, PASS, PASS 02020202 002903E9, PASS G: 1057 _ O: 13753, PASS, PASS, Accuracy Error EC: 30, Failed Test Count: 1 Test Time: 31.98s, 
29-07-2023 13:53:50, VE01406231001, 0x02020202002903E9, PASS, PASS, PASS, PASS, PASS, PASS 02020202 002903E9, PASS G: 1057 _ O: 9521, PASS, PASS, Accuracy Error EC: 30, Failed Test Count: 1 Test Time: 32.66s, 
29-07-2023 13:58:29, VE01406231001, 0x02020202002903E9, PASS, PASS, PASS, PASS, PASS, PASS 02020202 002903E9, PASS G: 1057 _ O: 13742, PASS, PASS, PASS, PASS Test Time: 31.43, 
29-07-2023 14:46:26, VE01406231001, 0x02020202002903E9, PASS, PASS, PASS, PASS, PASS, PASS 02020202 002903E9, PASS G: 1058 _ O: 1058, PASS, PASS, PASS, PASS Test Time: 31.19, 
29-07-2023 14:48:49, VE01406231001, 0x02020202002903E9, PASS, PASS, PASS, PASS, PASS, PASS 02020202 002903E9, PASS G: 1057 _ O: 13753, PASS, PASS, Accuracy Error EC: 27, Failed Test Count: 1 Test Time: 50.89s, 
29-07-2023 14:50:30, VE01406231001, 0x02020202002903E9, PASS, PASS, PASS, PASS, PASS, PASS 02020202 002903E9, PASS G: 1056 _ O: 22179, PASS, PASS, Accuracy Error EC: 27, Failed Test Count: 1 Test Time: 50.37s, 
29-07-2023 14:53:45, VE01406231001, 0x02020202002903E9, PASS, PASS, PASS, PASS, PASS, PASS 02020202 002903E9, PASS G: 1057 _ O: 17970, PASS, PASS, Accuracy Error EC: 27, Failed Test Count: 1 Test Time: 50.38s, 
29-07-2023 14:55:16, VE01406231001, 0x02020202002903E9, PASS, PASS, PASS, PASS, PASS, PASS 02020202 002903E9, PASS G: 1056 _ O: 22179, PASS, PASS, PASS, PASS Test Time: 60.16, 
29-07-2023 15:04:35, VE01406231001, 0x02020202002903E9, PASS, PASS, PASS, PASS, PASS, PASS 02020202 002903E9, PASS G: 1057 _ O: 5289, PASS, PASS, PASS, PASS Test Time: 60.17, 
29-07-2023 15:53:30, VE01406231001, 0x02020202002903E9, PASS, PASS, PASS, PASS, PASS, PASS 02020202 002903E9, PASS G: 1056 _ O: 22179, PASS, PASS, PASS, PASS Test Time: 60.17, 
29-07-2023 15:58:10, VE01406231001, 0x02020202002903E9, PASS, PASS, PASS, PASS, PASS, PASS 02020202 002903E9, PASS G: 1057 _ O: 5289, PASS, PASS, PASS, PASS Test Time: 31.51, 
