-------------------------------------------------------------------

ECUID: QRCode: VE01406231001, ECUID: 02020202002903E9
14-08-2023 17:34:19, CAN Module Found, COM11, Time: 0.0
14-08-2023 17:34:20, CC Load Present , 1, Time: 0.0
14-08-2023 17:34:20, FCTBoard Found , COM37 - USB Serial Device (COM37), Time: 0.0
14-08-2023 17:34:20, TestNo: 1) connectJlink JLINK Found, PASS, Time: 0.35
14-08-2023 17:34:20, sendCommandFCTBoard: 4, [36, 4, 1, 20, 0, 0, 0, 35], Time: 0.0
14-08-2023 17:34:20, TestNo: 2) pingFCT, PASS, Time: 0.0
14-08-2023 17:34:20, sendCommandFCTBoard: 6, [36, 6, 1, 0, 0, 0, 0, 35], Time: 0.0
14-08-2023 17:34:20, sendCommandFCTBoard: 1, [36, 1, 1, 0, 0, 0, 0, 35], Time: 0.0
14-08-2023 17:34:23, sendCommandFCTBoard: 8, [36, 8, 1, 0, 0, 0, 0, 35], Time: 0.0
14-08-2023 17:34:23, defaultModeFCT, PASS, Time: 0.0
14-08-2023 17:34:23, TestNo: 3) chargeMosfetSC, PASS, Time: 3.06
14-08-2023 17:34:23, sendCommandFCTBoard: 5, [36, 5, 1, 0, 0, 0, 0, 35], Time: 0.0
14-08-2023 17:34:23, sendCommandFCTBoard: 12, [36, 12, 1, 0, 0, 0, 0, 35], Time: 0.0
14-08-2023 17:34:23, TestNo: 4) emulatorON, PASS, Time: 0.51
14-08-2023 17:34:25, TestNo: 5) flashTestcode ./Final/Binary/BMSTestCode.hex, PASS, Time: 1.81
14-08-2023 17:34:25, sendCommandBMS: 26, [36, 26, 0, 2, 1, 0, 0, 35], Time: 0.0
14-08-2023 17:34:25, TestNo: 6) pingBMSData: 33619968, PASS, Time: 0.22
14-08-2023 17:34:28, sendCommandBMS: 27, [36, 27, 1, 0, 0, 0, 0, 35], Time: 0.0
14-08-2023 17:34:28, TestNo: 7) norFlashEEPROM, PASS, Time: 2.26
14-08-2023 17:34:28, sendCommandBMS: 28, [36, 28, 1, 0, 0, 0, 0, 35], Time: 0.0
14-08-2023 17:34:28, sendCommandBMS: 29, [36, 29, 1, 0, 0, 0, 0, 35], Time: 0.0
14-08-2023 17:34:28, TestNo: 8) flashECUID, PASS 02020202 002903E9, Time: 0.63
14-08-2023 17:34:29, sendCommandBMS: 30, [36, 30, 1, 0, 0, 0, 0, 35], Time: 0.0
14-08-2023 17:34:29, sendCommandFCTBoard: 9, [36, 9, 1, 1, 0, 20, 0, 35], Time: 0.0
14-08-2023 17:34:29, TestNo: 9) initAFEs, PASS, Time: 1.21
14-08-2023 17:34:29, sendCommandFCTBoard: 7, [36, 7, 1, 0, 0, 0, 0, 35], Time: 0.0
14-08-2023 17:34:30, sendCommandBMS: 46, [36, 46, 0, 1, 0, 0, 0, 35], Time: 0.0
14-08-2023 17:34:30, sendCommandFCTBoard: 7, [36, 7, 1, 0, 0, 0, 0, 35], Time: 0.0
14-08-2023 17:34:30, packFusePinRelayOff, PASS, Time: 0.0
14-08-2023 17:34:30, TestNo: 10) packFusePin, PASS, Time: 0.22
14-08-2023 17:34:30, sendCommandFCTBoard: 16, [36, 16, 1, 0, 0, 0, 0, 35], Time: 0.0
14-08-2023 17:34:32, sendCommandBMS: 41, [36, 41, 0, 96, 23, 0, 0, 35], Time: 0.0
14-08-2023 17:34:34, sendCommandBMS: 41, [36, 41, 0, 227, 46, 0, 0, 35], Time: 0.0
14-08-2023 17:34:35, sendCommandBMS: 42, [36, 42, 0, 228, 3, 0, 0, 35], Time: 0.0
14-08-2023 17:34:35, sendCommandBMS: 40, [36, 40, 0, 73, 136, 255, 255, 35], Time: 0.0
14-08-2023 17:34:35, TestNo: 11) currentCalibration, PASS G: 996 _ O: -30647, Time: 5.28
14-08-2023 17:34:36, sendCommandFCTBoard: 8, [36, 8, 1, 0, 0, 0, 0, 35], Time: 0.0
14-08-2023 17:34:36, defaultModeFCT, PASS, Time: 0.0
14-08-2023 17:34:36, sendCommandFCTBoard: 3, [36, 3, 1, 0, 0, 0, 0, 35], Time: 0.0
14-08-2023 17:34:46, sendCommandBMS: 31, [36, 31, 0, 0, 0, 0, 0, 35], Time: 0.0
14-08-2023 17:34:46, sendCommandBMS: 33, [36, 33, 0, 0, 0, 0, 0, 35], Time: 0.0
14-08-2023 17:35:07, sendCommandBMS: 32, [36, 32, 0, 0, 0, 0, 0, 35], Time: 0.0
14-08-2023 17:35:07, sendCommandBMS: 34, [36, 34, 0, 0, 0, 0, 0, 35], Time: 0.0
14-08-2023 17:35:37, TestNo: 12) dsgMosfet, PASS, Time: 62.02
14-08-2023 17:35:37, sendCommandBMS: 51, [36, 51, 0, 0, 0, 0, 0, 35], Time: 0.0
14-08-2023 17:35:41, TestNo: 13) CANStandByPin, PASS, Time: 4.26
14-08-2023 17:35:44, TestNo: 14) mcuFlash ./Final/Binary/J1939_20.hex, PASS, Time: 2.97
14-08-2023 17:35:44, sendCommandFCTBoard: 17, [36, 17, 1, 154, 21, 27, 27, 35], Time: 0.0
14-08-2023 17:35:45, CAN BUS Key:, [['StacknCellVoltage_1', 3000, 50], ['StacknCellVoltage_2', 3000, 50], ['StacknCellVoltage_3', 3000, 50], ['StacknCellVoltage_4', 3000, 50], ['StacknCellVoltage_5', 3000, 50], ['StacknCellVoltage_6', 3000, 50], ['StacknCellVoltage_7', 3000, 50], ['StacknCellVoltage_8', 3000, 50], ['StacknCellVoltage_9', 3000, 50], ['StacknCellVoltage_10', 3000, 50], ['StacknCellVoltage_11', 3000, 50], ['StacknCellVoltage_12', 3000, 50], ['StacknCellVoltage_13', 3000, 50], ['StacknCellVoltage_14', 3000, 50], ['StacknCellVoltage_15', 3000, 50], ['StacknCellVoltage_16', 3000, 50], ['StacknCellVoltage_17', 3000, 50], ['StacknCellVoltage_18', 3000, 50], ['StacknCellVoltage_19', 3000, 50], ['StacknCellVoltage_20', 3000, 50], ['Stack_Temp1', 41, 5], ['Stack_Temp2', 41, 5], ['Stack_Temp3', 41, 5], ['Stack_Temp4', 41, 5], ['Stack_Temp5', 41, 5], ['Stack_Temp6', 41, 5], ['Stack_Temp7', 41, 5], ['Precharge_Temp', 27, 5], ['MOSFET_Temp', 27, 5], ['ECUSerialNumber_Part1', 144680345645155305, 0], ['PackCurrent', 2, 0.5], ['MOSFETStatusPrecharge', 'PreChargeSuccessful', 0], ['MOSFETStatusCharge', 'Enabled', 0], ['MOSFETStatusDischarge', 'Enabled', 0], ['OverVoltageFault', 0, 0], ['UnderVoltageFault', 0, 0], ['OverCurrentDischargeFault', 0, 0], ['OverCurrentChargeFault', 0, 0], ['ShortCircuitFault', 0, 0], ['MOSFETOverTemperatureFault', 0, 0], ['MOSFETUnderTemperatureFault', 0, 0], ['BoardUnderTemperatureFault', 0, 0], ['OverTemperatureChargeFault', 0, 0], ['UnderTemperatureChargeFault', 0, 0], ['BatteryThermalRunaway', 0, 0], ['OverTemperatureDischargeFault', 0, 0], ['UnderTemperatureDischargeFault', 0, 0], ['AFE_Comm_Error', 0, 0]], Time: 0.0
14-08-2023 17:35:56, CAN Meta Data:, {'ECUPN_Part1': 3616445692050945330, 'ECUPN_Part2': 3553075, 'ECUPN_Part3': 0, 'Delimiter_1': 42, 'ECUSerialNumber_Part1': 144680345645155305, 'ECUSerialNumber_Part2': 0, 'Delimiter_3': 42, 'ECULocation': 7627074, 'Delimiter_4': 42, 'ECUType': 361537686850, 'Delimiter_2': 42, 'MCUName_Part1': 15253736527115091, 'MCUName_Part2': 0, 'MCUName_Part3': 0, 'HardwareRevision': 32, 'WarrantyStatus': 255, 'SoftwareSlot': 1, 'Rsvd': 255, 'SoftwareImageAddress': 3088, 'NVMStartAddress': 16384, 'NumberofFields': 11, 'Hour': 16, 'Min': 36, 'Sec': 49, 'Date': 4, 'Month': 8, 'Year': 2023, 'Version_MajorChange': 3, 'Version_FA': 6, 'Version_MinorChange': 1, 'Version_VendorEnum': 0, 'Version_CC': 0, 'Version_BuildCount': 18635809, 'SoftwareVersion_MajorVersion': 3, 'SoftwareVersion_MinorVersion': 0}, Time: 0.0
14-08-2023 17:35:59, CAN Meta Data:, {'ECUPN_Part1': 3616445692050945330, 'ECUPN_Part2': 3553075, 'ECUPN_Part3': 0, 'Delimiter_1': 42, 'ECUSerialNumber_Part1': 144680345645155305, 'ECUSerialNumber_Part2': 0, 'Delimiter_3': 42, 'ECULocation': 7627074, 'Delimiter_4': 42, 'ECUType': 361537686850, 'Delimiter_2': 42, 'MCUName_Part1': 15253736527115091, 'MCUName_Part2': 0, 'MCUName_Part3': 0, 'HardwareRevision': 32, 'WarrantyStatus': 255, 'SoftwareSlot': 1, 'Rsvd': 255, 'SoftwareImageAddress': 3088, 'NVMStartAddress': 16384, 'NumberofFields': 11, 'Hour': 16, 'Min': 36, 'Sec': 49, 'Date': 4, 'Month': 8, 'Year': 2023, 'Version_MajorChange': 3, 'Version_FA': 6, 'Version_MinorChange': 1, 'Version_VendorEnum': 0, 'Version_CC': 0, 'Version_BuildCount': 18635809, 'SoftwareVersion_MajorVersion': 3, 'SoftwareVersion_MinorVersion': 0, 'OverVoltageThreshold': 3600, 'UnderVoltageThreshold': 2700, 'OverCurrentThreshold': 10000, 'NominalVoltage': 3200, 'OverTemperatureThreshold': 850, 'UnderTemperatureThreshold': 0, 'FullChargeCapacity': 108000000, 'DesignCapacity': 30, 'SeriesConfiguration': 20, 'ParallelConfiguration': 12, 'TemperatureSensorCount': 7}, Time: 0.0
14-08-2023 17:36:03, CAN Data:, TBO=18268, PC=0.0, RC=13243804, TBMSS=18271, BMSCM=Idle, BMSPM=Normal Mode, R1=0, TBCV=18222, SICV=2, SV=59680, SCV1=2994, SCV2=2996, SCV3=2996, SCV4=2996, SCV5=2995, SCV6=2996, SCV7=2996, SCV8=2996, SCV9=2998, SCV10=2997, SCV11=2997, SCV12=2997, SCV13=2998, SCV14=2998, SCV15=2997, SCV16=2998, SCV17=2998, SCV18=2998, SCV19=2998, SCV20=2980, SIFS=1, MOSFETSC=Enabled, MOSFETSD=Enabled, MOSFETSP=PreChargeSuccessful, OVF=0, UVF=0, OTDF=0, UTDF=0, OCDF=0, OCCF=0, SCF=0, MOSFETOTF=0, MOSFETUTF=0, AFECE=0, BOTF=0, BUTF=0, OTCF=0, UTCF=0, BTR=0, MSC=0, SBSC1=0, SBSC2=0, SBSC3=0, SBSC4=0, SBSC5=0, SBSC6=0, SBSC7=0, SBSC8=0, SBSC9=0, SBSC10=0, SBSC11=0, SBSC12=0, SBSC13=0, SBSC14=0, SBSC15=0, SBSC16=0, SBSC17=0, SBSC18=0, SBSC19=0, SBSC20=0, SBSC21=0, SBSC22=0, SBSC23=0, SBSC24=0, TBE=16671, CVM=2999, CVM=2980, TM=407, TM=402, TBE=16674, SOE=0, CW=2605, OCVC=0, TBLP=16677, AG=0, AS=110, WS=0, CC=0, DC=0, TBT=18470, SIBT=0, ST1=40.5, ST2=40.5, ST3=40.5, ST4=40.400000000000006, ST5=40.5, ST6=40.400000000000006, ST7=40.5, ST8=0, ST9=0, PT=24.900000000000002, MOSFETT=26.900000000000002, MOSFETT2=0, BMSBT=-1, AFET1=25, AFET2=26, , Time: 0.0
14-08-2023 17:36:03, CAN BUS Data:, [2994, 2996, 2996, 2996, 2995, 2996, 2996, 2996, 2998, 2997, 2997, 2997, 2998, 2998, 2997, 2998, 2998, 2998, 2998, 2980, 40.5, 40.5, 40.5, 40.400000000000006, 40.5, 40.400000000000006, 40.5, 24.900000000000002, 26.900000000000002, 144680345645155305, 0.0, 'PreChargeSuccessful', 'Enabled', 'Enabled', 0, 0, 0, 0, 0, 0, 0, 0, 0, 0, 0, 0, 0, 0], Time: 0.0
14-08-2023 17:36:08, CAN Data:, TBO=23206, PC=1.859, RC=13236135, TBMSS=23210, BMSCM=Idle, BMSPM=Normal Mode, R1=0, TBCV=23006, SICV=2, SV=59650, SCV1=2972, SCV2=2996, SCV3=2996, SCV4=2996, SCV5=2995, SCV6=2996, SCV7=2996, SCV8=2996, SCV9=2998, SCV10=2998, SCV11=2997, SCV12=2997, SCV13=2998, SCV14=2998, SCV15=2997, SCV16=2998, SCV17=2998, SCV18=2998, SCV19=2999, SCV20=2978, SIFS=1, MOSFETSC=Enabled, MOSFETSD=Enabled, MOSFETSP=PreChargeSuccessful, OVF=0, UVF=0, OTDF=0, UTDF=0, OCDF=0, OCCF=0, SCF=0, MOSFETOTF=0, MOSFETUTF=0, AFECE=0, BOTF=0, BUTF=0, OTCF=0, UTCF=0, BTR=0, MSC=0, SBSC1=0, SBSC2=0, SBSC3=0, SBSC4=0, SBSC5=0, SBSC6=0, SBSC7=0, SBSC8=0, SBSC9=0, SBSC10=0, SBSC11=0, SBSC12=0, SBSC13=0, SBSC14=0, SBSC15=0, SBSC16=0, SBSC17=0, SBSC18=0, SBSC19=0, SBSC20=0, SBSC21=0, SBSC22=0, SBSC23=0, SBSC24=0, TBE=23251, CVM=2999, CVM=2972, TM=425, TM=402, TBE=23253, SOE=0, CW=2605, OCVC=0, TBLP=23256, AG=0, AS=112, WS=0, CC=0, DC=0, TBT=23608, SIBT=0, ST1=42.6, ST2=42.5, ST3=42.5, ST4=40.300000000000004, ST5=40.5, ST6=40.400000000000006, ST7=40.7, ST8=255, ST9=255, MOSFETT=26.8, MOSFETT2=0, BMSBT=-1, AFET1=25, AFET2=26, PT=24.900000000000002, , Time: 0.0
14-08-2023 17:36:08, CAN BUS Data:, [2972, 2996, 2996, 2996, 2995, 2996, 2996, 2996, 2998, 2998, 2997, 2997, 2998, 2998, 2997, 2998, 2998, 2998, 2999, 2978, 42.6, 42.5, 42.5, 40.300000000000004, 40.5, 40.400000000000006, 40.7, 24.900000000000002, 26.8, 144680345645155305, 1.859, 'PreChargeSuccessful', 'Enabled', 'Enabled', 0, 0, 0, 0, 0, 0, 0, 0, 0, 0, 0, 0, 0, 0], Time: 0.0
14-08-2023 17:36:14, CAN Data:, TBO=28096, PC=1.859, RC=13227064, TBMSS=28100, BMSCM=Discharge, BMSPM=Normal Mode, R1=0, TBCV=27744, SICV=2, SV=59660, SCV1=2972, SCV2=2996, SCV3=2996, SCV4=2996, SCV5=2995, SCV6=2996, SCV7=2996, SCV8=2997, SCV9=2998, SCV10=2997, SCV11=2997, SCV12=2997, SCV13=2998, SCV14=2998, SCV15=2997, SCV16=2998, SCV17=2998, SCV18=2998, SCV19=2998, SCV20=2975, SIFS=1, MOSFETSC=Enabled, MOSFETSD=Enabled, MOSFETSP=PreChargeSuccessful, OVF=0, UVF=0, OTDF=0, UTDF=0, OCDF=0, OCCF=0, SCF=0, MOSFETOTF=0, MOSFETUTF=0, AFECE=0, BOTF=0, BUTF=0, OTCF=0, UTCF=0, BTR=0, MSC=0, SBSC1=0, SBSC2=0, SBSC3=0, SBSC4=0, SBSC5=0, SBSC6=0, SBSC7=0, SBSC8=0, SBSC9=0, SBSC10=0, SBSC11=0, SBSC12=0, SBSC13=0, SBSC14=0, SBSC15=0, SBSC16=0, SBSC17=0, SBSC18=0, SBSC19=0, SBSC20=0, SBSC21=0, SBSC22=0, SBSC23=0, SBSC24=0, TBE=26613, CVM=2999, CVM=2972, TM=425, TM=403, TBE=26615, SOE=0, CW=2605, OCVC=0, TBLP=26618, AG=0, AS=114, WS=0, CC=0, DC=0, TBT=28700, SIBT=0, ST1=42.5, ST2=42.6, ST3=42.5, ST4=40.5, ST5=40.300000000000004, ST6=40.300000000000004, ST7=40.400000000000006, ST8=255, ST9=255, MOSFETT=26.8, MOSFETT2=0, BMSBT=-1, AFET1=25, AFET2=26, TBS=23613, SOC=12.254995346069336, SOH=100.0, PT=24.900000000000002, , Time: 0.0
14-08-2023 17:36:14, CAN BUS Data:, [2972, 2996, 2996, 2996, 2995, 2996, 2996, 2997, 2998, 2997, 2997, 2997, 2998, 2998, 2997, 2998, 2998, 2998, 2998, 2975, 42.5, 42.6, 42.5, 40.5, 40.300000000000004, 40.300000000000004, 40.400000000000006, 24.900000000000002, 26.8, 144680345645155305, 1.859, 'PreChargeSuccessful', 'Enabled', 'Enabled', 0, 0, 0, 0, 0, 0, 0, 0, 0, 0, 0, 0, 0, 0], Time: 0.0
14-08-2023 17:36:19, CAN Data:, TBO=33678, PC=1.859, RC=13216706, TBMSS=33682, BMSCM=Discharge, BMSPM=Normal Mode, R1=0, TBCV=33723, SICV=2, SV=59660, SCV1=2972, SCV2=2996, SCV3=2996, SCV4=2996, SCV5=2995, SCV6=2996, SCV7=2996, SCV8=2996, SCV9=2999, SCV10=2997, SCV11=2997, SCV12=2997, SCV13=2998, SCV14=2998, SCV15=2997, SCV16=2998, SCV17=2998, SCV18=2998, SCV19=2999, SCV20=2980, SIFS=1, MOSFETSC=Enabled, MOSFETSD=Enabled, MOSFETSP=PreChargeSuccessful, OVF=0, UVF=0, OTDF=0, UTDF=0, OCDF=0, OCCF=0, SCF=0, MOSFETOTF=0, MOSFETUTF=0, AFECE=0, BOTF=0, BUTF=0, OTCF=0, UTCF=0, BTR=0, MSC=0, SBSC1=0, SBSC2=0, SBSC3=0, SBSC4=0, SBSC5=0, SBSC6=0, SBSC7=0, SBSC8=0, SBSC9=0, SBSC10=0, SBSC11=0, SBSC12=0, SBSC13=0, SBSC14=0, SBSC15=0, SBSC16=0, SBSC17=0, SBSC18=0, SBSC19=0, SBSC20=0, SBSC21=0, SBSC22=0, SBSC23=0, SBSC24=0, TBE=33125, CVM=2999, CVM=2972, TM=425, TM=404, TBE=33127, SOE=0, CW=2605, OCVC=0, TBLP=33130, AG=0, AS=117, WS=0, CC=0, DC=0, TBT=33746, SIBT=0, ST1=42.5, ST2=42.6, ST3=42.5, ST4=40.400000000000006, ST5=40.2, ST6=40.300000000000004, ST7=40.400000000000006, ST8=255, ST9=255, MOSFETT=26.700000000000003, MOSFETT2=0, BMSBT=-1, AFET1=25, AFET2=26, TBS=28705, SOC=12.246248245239258, SOH=100.0, PT=24.900000000000002, , Time: 0.0
14-08-2023 17:36:19, CAN BUS Data:, [2972, 2996, 2996, 2996, 2995, 2996, 2996, 2996, 2999, 2997, 2997, 2997, 2998, 2998, 2997, 2998, 2998, 2998, 2999, 2980, 42.5, 42.6, 42.5, 40.400000000000006, 40.2, 40.300000000000004, 40.400000000000006, 24.900000000000002, 26.700000000000003, 144680345645155305, 1.859, 'PreChargeSuccessful', 'Enabled', 'Enabled', 0, 0, 0, 0, 0, 0, 0, 0, 0, 0, 0, 0, 0, 0], Time: 0.0
14-08-2023 17:36:24, CAN Data:, TBO=38508, PC=1.839, RC=13207825, TBMSS=38512, BMSCM=Discharge, BMSPM=Normal Mode, R1=0, TBCV=38512, SICV=2, SV=59660, SCV1=2972, SCV2=2996, SCV3=2996, SCV4=2996, SCV5=2995, SCV6=2996, SCV7=2996, SCV8=2997, SCV9=2999, SCV10=2998, SCV11=2997, SCV12=2997, SCV13=2998, SCV14=2998, SCV15=2997, SCV16=2998, SCV17=2998, SCV18=2998, SCV19=2998, SCV20=2978, SIFS=1, MOSFETSC=Enabled, MOSFETSD=Enabled, MOSFETSP=PreChargeSuccessful, OVF=0, UVF=0, OTDF=0, UTDF=0, OCDF=0, OCCF=0, SCF=0, MOSFETOTF=0, MOSFETUTF=0, AFECE=0, BOTF=0, BUTF=0, OTCF=0, UTCF=0, BTR=0, MSC=0, SBSC1=0, SBSC2=0, SBSC3=0, SBSC4=0, SBSC5=0, SBSC6=0, SBSC7=0, SBSC8=0, SBSC9=0, SBSC10=0, SBSC11=0, SBSC12=0, SBSC13=0, SBSC14=0, SBSC15=0, SBSC16=0, SBSC17=0, SBSC18=0, SBSC19=0, SBSC20=0, SBSC21=0, SBSC22=0, SBSC23=0, SBSC24=0, TBE=36471, CVM=3000, CVM=2973, TM=425, TM=403, TBE=36474, SOE=0, CW=2605, OCVC=0, TBLP=36477, AG=0, AS=119, WS=0, CC=0, DC=0, TBT=38864, SIBT=0, ST1=42.5, ST2=42.5, ST3=42.5, ST4=40.400000000000006, ST5=40.300000000000004, ST6=40.400000000000006, ST7=40.300000000000004, ST8=255, ST9=255, MOSFETT=26.6, MOSFETT2=0, BMSBT=-1, AFET1=25, AFET2=26, TBS=33751, SOC=12.237690925598145, SOH=100.0, PT=24.900000000000002, , Time: 0.0
14-08-2023 17:36:24, CAN BUS Data:, [2972, 2996, 2996, 2996, 2995, 2996, 2996, 2997, 2999, 2998, 2997, 2997, 2998, 2998, 2997, 2998, 2998, 2998, 2998, 2978, 42.5, 42.5, 42.5, 40.400000000000006, 40.300000000000004, 40.400000000000006, 40.300000000000004, 24.900000000000002, 26.6, 144680345645155305, 1.839, 'PreChargeSuccessful', 'Enabled', 'Enabled', 0, 0, 0, 0, 0, 0, 0, 0, 0, 0, 0, 0, 0, 0], Time: 0.0
14-08-2023 17:36:29, CAN Data:, TBO=43389, PC=1.859, RC=13198775, TBMSS=43393, BMSCM=Discharge, BMSPM=Normal Mode, R1=0, TBCV=43346, SICV=2, SV=59670, SCV1=2972, SCV2=2996, SCV3=2996, SCV4=2996, SCV5=2995, SCV6=2996, SCV7=2996, SCV8=2995, SCV9=3000, SCV10=2998, SCV11=2997, SCV12=2997, SCV13=2998, SCV14=2998, SCV15=2997, SCV16=2998, SCV17=2998, SCV18=2998, SCV19=2999, SCV20=2978, SIFS=1, MOSFETSC=Enabled, MOSFETSD=Enabled, MOSFETSP=PreChargeSuccessful, OVF=0, UVF=0, OTDF=0, UTDF=0, OCDF=0, OCCF=0, SCF=0, MOSFETOTF=0, MOSFETUTF=0, AFECE=0, BOTF=0, BUTF=0, OTCF=0, UTCF=0, BTR=0, MSC=0, SBSC1=0, SBSC2=0, SBSC3=0, SBSC4=0, SBSC5=0, SBSC6=0, SBSC7=0, SBSC8=0, SBSC9=0, SBSC10=0, SBSC11=0, SBSC12=0, SBSC13=0, SBSC14=0, SBSC15=0, SBSC16=0, SBSC17=0, SBSC18=0, SBSC19=0, SBSC20=0, SBSC21=0, SBSC22=0, SBSC23=0, SBSC24=0, TBE=42994, CVM=2999, CVM=2972, TM=425, TM=403, TBE=42996, SOE=0, CW=2605, OCVC=0, TBLP=42999, AG=0, AS=122, WS=0, CC=0, DC=0, TBT=43947, SIBT=0, ST1=42.6, ST2=42.5, ST3=42.5, ST4=40.5, ST5=40.300000000000004, ST6=40.5, ST7=40.7, ST8=255, ST9=255, MOSFETT=26.5, MOSFETT2=0, BMSBT=-1, AFET1=25, AFET2=26, TBS=38869, SOC=12.228789329528809, SOH=100.0, PT=24.900000000000002, , Time: 0.0
14-08-2023 17:36:29, CAN BUS Data:, [2972, 2996, 2996, 2996, 2995, 2996, 2996, 2995, 3000, 2998, 2997, 2997, 2998, 2998, 2997, 2998, 2998, 2998, 2999, 2978, 42.6, 42.5, 42.5, 40.5, 40.300000000000004, 40.5, 40.7, 24.900000000000002, 26.5, 144680345645155305, 1.859, 'PreChargeSuccessful', 'Enabled', 'Enabled', 0, 0, 0, 0, 0, 0, 0, 0, 0, 0, 0, 0, 0, 0], Time: 0.0
14-08-2023 17:36:29, TestNo: 15) bmsDataValidation, PASS, Time: 44.65
14-08-2023 17:36:29, sendCommandFCTBoard: 10, [36, 10, 1, 29, 29, 36, 36, 35], Time: 0.0
14-08-2023 17:36:29, TestNo: 16) buckAccuracy, PASS, Time: 0.0
14-08-2023 17:36:29, sendCommandFCTBoard: 8, [36, 8, 1, 0, 0, 0, 0, 35], Time: 0.0
14-08-2023 17:36:29, defaultModeFCT, PASS, Time: 0.0
14-08-2023 17:36:29, TestNo: 17) BMS Test Passed, PASS Test Time: 129.45, Time: 0.57
-------------------------------------------------------------------

ECUID: QRCode: VE01406231001, ECUID: 02020202002903E9
14-08-2023 18:01:07, CAN Module Found, COM11, Time: 0.0
14-08-2023 18:01:07, CC Load Present , 1, Time: 0.0
14-08-2023 18:01:07, FCTBoard Found , COM37 - USB Serial Device (COM37), Time: 0.0
14-08-2023 18:01:07, TestNo: 1) connectJlink JLINK Found, PASS, Time: 0.33
14-08-2023 18:01:07, sendCommandFCTBoard: 4, [36, 4, 1, 20, 0, 0, 0, 35], Time: 0.0
14-08-2023 18:01:07, TestNo: 2) pingFCT, PASS, Time: 0.0
14-08-2023 18:01:07, sendCommandFCTBoard: 6, [36, 6, 1, 0, 0, 0, 0, 35], Time: 0.0
14-08-2023 18:01:07, sendCommandFCTBoard: 1, [36, 1, 1, 0, 0, 0, 0, 35], Time: 0.0
14-08-2023 18:01:10, sendCommandFCTBoard: 8, [36, 8, 1, 0, 0, 0, 0, 35], Time: 0.0
14-08-2023 18:01:10, defaultModeFCT, PASS, Time: 0.0
14-08-2023 18:01:10, TestNo: 3) chargeMosfetSC, PASS, Time: 3.27
14-08-2023 18:01:10, sendCommandFCTBoard: 5, [36, 5, 1, 0, 0, 0, 0, 35], Time: 0.0
14-08-2023 18:01:11, sendCommandFCTBoard: 12, [36, 12, 1, 0, 0, 0, 0, 35], Time: 0.0
14-08-2023 18:01:11, TestNo: 4) emulatorON, PASS, Time: 0.51
14-08-2023 18:01:13, TestNo: 5) flashTestcode ./Final/Binary/BMSTestCode.hex, PASS, Time: 1.79
14-08-2023 18:01:13, sendCommandBMS: 26, [36, 26, 0, 6, 1, 0, 0, 35], Time: 0.0
14-08-2023 18:01:13, TestNo: 6) pingBMSData: 100728832, PASS, Time: 0.22
14-08-2023 18:01:15, sendCommandBMS: 27, [36, 27, 1, 0, 0, 0, 0, 35], Time: 0.0
14-08-2023 18:01:15, TestNo: 7) norFlashEEPROM, PASS, Time: 2.27
14-08-2023 18:01:16, sendCommandBMS: 28, [36, 28, 1, 0, 0, 0, 0, 35], Time: 0.0
14-08-2023 18:01:16, sendCommandBMS: 29, [36, 29, 1, 0, 0, 0, 0, 35], Time: 0.0
14-08-2023 18:01:16, TestNo: 8) flashECUID, PASS 02020202 002903E9, Time: 0.63
14-08-2023 18:01:17, sendCommandBMS: 30, [36, 30, 1, 0, 0, 0, 0, 35], Time: 0.0
14-08-2023 18:01:17, sendCommandFCTBoard: 9, [36, 9, 1, 1, 0, 20, 0, 35], Time: 0.0
14-08-2023 18:01:17, TestNo: 9) initAFEs, PASS, Time: 1.21
14-08-2023 18:01:17, sendCommandFCTBoard: 7, [36, 7, 1, 0, 0, 0, 0, 35], Time: 0.0
14-08-2023 18:01:17, sendCommandBMS: 46, [36, 46, 0, 1, 0, 0, 0, 35], Time: 0.0
14-08-2023 18:01:17, sendCommandFCTBoard: 7, [36, 7, 1, 0, 0, 0, 0, 35], Time: 0.0
14-08-2023 18:01:17, packFusePinRelayOff, PASS, Time: 0.0
14-08-2023 18:01:17, TestNo: 10) packFusePin, PASS, Time: 0.22
14-08-2023 18:01:17, sendCommandFCTBoard: 16, [36, 16, 1, 0, 0, 0, 0, 35], Time: 0.0
14-08-2023 18:01:20, sendCommandBMS: 41, [36, 41, 0, 94, 23, 0, 0, 35], Time: 0.0
14-08-2023 18:01:22, sendCommandBMS: 41, [36, 41, 0, 224, 46, 0, 0, 35], Time: 0.0
14-08-2023 18:01:22, sendCommandBMS: 42, [36, 42, 0, 229, 3, 0, 0, 35], Time: 0.0
14-08-2023 18:01:23, sendCommandBMS: 40, [36, 40, 0, 52, 140, 255, 255, 35], Time: 0.0
14-08-2023 18:01:23, TestNo: 11) currentCalibration, PASS G: 997 _ O: -29644, Time: 5.25
14-08-2023 18:01:23, sendCommandFCTBoard: 8, [36, 8, 1, 0, 0, 0, 0, 35], Time: 0.0
14-08-2023 18:01:23, defaultModeFCT, PASS, Time: 0.0
14-08-2023 18:01:23, sendCommandFCTBoard: 3, [36, 3, 1, 0, 0, 0, 0, 35], Time: 0.0
14-08-2023 18:01:25, sendCommandBMS: 31, [36, 31, 0, 0, 0, 0, 0, 35], Time: 0.0
14-08-2023 18:01:25, sendCommandBMS: 33, [36, 33, 0, 0, 0, 0, 0, 35], Time: 0.0
14-08-2023 18:01:27, sendCommandBMS: 32, [36, 32, 0, 0, 0, 0, 0, 35], Time: 0.0
14-08-2023 18:01:27, sendCommandBMS: 34, [36, 34, 0, 0, 0, 0, 0, 35], Time: 0.0
14-08-2023 18:01:30, TestNo: 12) dsgMosfet, PASS, Time: 7.03
14-08-2023 18:01:30, sendCommandBMS: 51, [36, 51, 0, 0, 0, 0, 0, 35], Time: 0.0
14-08-2023 18:01:34, TestNo: 13) CANStandByPin, PASS, Time: 4.27
14-08-2023 18:01:37, TestNo: 14) mcuFlash ./Final/Binary/J1939_20.hex, PASS, Time: 2.95
14-08-2023 18:01:37, sendCommandFCTBoard: 17, [36, 17, 1, 153, 21, 26, 26, 35], Time: 0.0
14-08-2023 18:01:37, CAN BUS Key:, [['StacknCellVoltage_1', 3000, 50], ['StacknCellVoltage_2', 3000, 50], ['StacknCellVoltage_3', 3000, 50], ['StacknCellVoltage_4', 3000, 50], ['StacknCellVoltage_5', 3000, 50], ['StacknCellVoltage_6', 3000, 50], ['StacknCellVoltage_7', 3000, 50], ['StacknCellVoltage_8', 3000, 50], ['StacknCellVoltage_9', 3000, 50], ['StacknCellVoltage_10', 3000, 50], ['StacknCellVoltage_11', 3000, 50], ['StacknCellVoltage_12', 3000, 50], ['StacknCellVoltage_13', 3000, 50], ['StacknCellVoltage_14', 3000, 50], ['StacknCellVoltage_15', 3000, 50], ['StacknCellVoltage_16', 3000, 50], ['StacknCellVoltage_17', 3000, 50], ['StacknCellVoltage_18', 3000, 50], ['StacknCellVoltage_19', 3000, 50], ['StacknCellVoltage_20', 3000, 50], ['Stack_Temp1', 41, 5], ['Stack_Temp2', 41, 5], ['Stack_Temp3', 41, 5], ['Stack_Temp4', 41, 5], ['Stack_Temp5', 41, 5], ['Stack_Temp6', 41, 5], ['Stack_Temp7', 41, 5], ['Precharge_Temp', 26, 5], ['MOSFET_Temp', 26, 5], ['ECUSerialNumber_Part1', 144680345645155305, 0], ['PackCurrent', 2, 0.5], ['MOSFETStatusPrecharge', 'PreChargeSuccessful', 0], ['MOSFETStatusCharge', 'Enabled', 0], ['MOSFETStatusDischarge', 'Enabled', 0], ['OverVoltageFault', 0, 0], ['UnderVoltageFault', 0, 0], ['OverCurrentDischargeFault', 0, 0], ['OverCurrentChargeFault', 0, 0], ['ShortCircuitFault', 0, 0], ['MOSFETOverTemperatureFault', 0, 0], ['MOSFETUnderTemperatureFault', 0, 0], ['BoardUnderTemperatureFault', 0, 0], ['OverTemperatureChargeFault', 0, 0], ['UnderTemperatureChargeFault', 0, 0], ['BatteryThermalRunaway', 0, 0], ['OverTemperatureDischargeFault', 0, 0], ['UnderTemperatureDischargeFault', 0, 0], ['AFE_Comm_Error', 0, 0]], Time: 0.0
14-08-2023 18:01:49, CAN Meta Data:, {'ECUPN_Part1': 3616445692050945330, 'ECUPN_Part2': 3553075, 'ECUPN_Part3': 0, 'Delimiter_1': 42, 'ECUSerialNumber_Part1': 144680345645155305, 'ECUSerialNumber_Part2': 0, 'Delimiter_3': 42, 'ECULocation': 7627074, 'Delimiter_4': 42, 'ECUType': 361537686850, 'Delimiter_2': 42, 'MCUName_Part1': 15253736527115091, 'MCUName_Part2': 0, 'MCUName_Part3': 0, 'HardwareRevision': 32, 'WarrantyStatus': 255, 'SoftwareSlot': 1, 'Rsvd': 255, 'SoftwareImageAddress': 3088, 'NVMStartAddress': 16384, 'NumberofFields': 11, 'Hour': 16, 'Min': 36, 'Sec': 49, 'Date': 4, 'Month': 8, 'Year': 2023, 'Version_MajorChange': 3, 'Version_FA': 6, 'Version_MinorChange': 1, 'Version_VendorEnum': 0, 'Version_CC': 0, 'Version_BuildCount': 18635809, 'SoftwareVersion_MajorVersion': 3, 'SoftwareVersion_MinorVersion': 0}, Time: 0.0
14-08-2023 18:01:51, CAN Meta Data:, {'ECUPN_Part1': 3616445692050945330, 'ECUPN_Part2': 3553075, 'ECUPN_Part3': 0, 'Delimiter_1': 42, 'ECUSerialNumber_Part1': 144680345645155305, 'ECUSerialNumber_Part2': 0, 'Delimiter_3': 42, 'ECULocation': 7627074, 'Delimiter_4': 42, 'ECUType': 361537686850, 'Delimiter_2': 42, 'MCUName_Part1': 15253736527115091, 'MCUName_Part2': 0, 'MCUName_Part3': 0, 'HardwareRevision': 32, 'WarrantyStatus': 255, 'SoftwareSlot': 1, 'Rsvd': 255, 'SoftwareImageAddress': 3088, 'NVMStartAddress': 16384, 'NumberofFields': 11, 'Hour': 16, 'Min': 36, 'Sec': 49, 'Date': 4, 'Month': 8, 'Year': 2023, 'Version_MajorChange': 3, 'Version_FA': 6, 'Version_MinorChange': 1, 'Version_VendorEnum': 0, 'Version_CC': 0, 'Version_BuildCount': 18635809, 'SoftwareVersion_MajorVersion': 3, 'SoftwareVersion_MinorVersion': 0, 'OverVoltageThreshold': 3600, 'UnderVoltageThreshold': 2700, 'OverCurrentThreshold': 10000, 'NominalVoltage': 3200, 'OverTemperatureThreshold': 850, 'UnderTemperatureThreshold': 0, 'FullChargeCapacity': 108000000, 'DesignCapacity': 30, 'SeriesConfiguration': 20, 'ParallelConfiguration': 12, 'TemperatureSensorCount': 7}, Time: 0.0
14-08-2023 18:01:56, CAN Data:, TBO=18275, PC=0.0, RC=13243804, TBMSS=18279, BMSCM=Idle, BMSPM=Normal Mode, R1=0, TBCV=18232, SICV=2, SV=59700, SCV1=2994, SCV2=2996, SCV3=2996, SCV4=2996, SCV5=2995, SCV6=2996, SCV7=2996, SCV8=2997, SCV9=2999, SCV10=2997, SCV11=2997, SCV12=2997, SCV13=2998, SCV14=2998, SCV15=2997, SCV16=2998, SCV17=2998, SCV18=2998, SCV19=2999, SCV20=2978, SIFS=1, MOSFETSC=Enabled, MOSFETSD=Enabled, MOSFETSP=PreChargeSuccessful, OVF=0, UVF=0, OTDF=0, UTDF=0, OCDF=0, OCCF=0, SCF=0, MOSFETOTF=0, MOSFETUTF=0, AFECE=0, BOTF=0, BUTF=0, OTCF=0, UTCF=0, BTR=0, MSC=0, SBSC1=0, SBSC2=0, SBSC3=0, SBSC4=0, SBSC5=0, SBSC6=0, SBSC7=0, SBSC8=0, SBSC9=0, SBSC10=0, SBSC11=0, SBSC12=0, SBSC13=0, SBSC14=0, SBSC15=0, SBSC16=0, SBSC17=0, SBSC18=0, SBSC19=0, SBSC20=0, SBSC21=0, SBSC22=0, SBSC23=0, SBSC24=0, TBE=16681, CVM=2999, CVM=2980, TM=406, TM=403, TBE=16684, SOE=0, CW=2605, OCVC=0, TBLP=16687, AG=0, AS=123, WS=0, CC=0, DC=0, TBT=18482, SIBT=0, ST1=40.5, ST2=40.5, ST3=40.5, ST4=40.400000000000006, ST5=40.5, ST6=40.5, ST7=40.6, ST8=0, ST9=0, PT=24.3, MOSFETT=27.700000000000003, MOSFETT2=0, BMSBT=-1, AFET1=25, AFET2=26, , Time: 0.0
14-08-2023 18:01:56, CAN BUS Data:, [2994, 2996, 2996, 2996, 2995, 2996, 2996, 2997, 2999, 2997, 2997, 2997, 2998, 2998, 2997, 2998, 2998, 2998, 2999, 2978, 40.5, 40.5, 40.5, 40.400000000000006, 40.5, 40.5, 40.6, 24.3, 27.700000000000003, 144680345645155305, 0.0, 'PreChargeSuccessful', 'Enabled', 'Enabled', 0, 0, 0, 0, 0, 0, 0, 0, 0, 0, 0, 0, 0, 0], Time: 0.0
14-08-2023 18:02:01, CAN Data:, TBO=23216, PC=1.838, RC=13236141, TBMSS=23220, BMSCM=Idle, BMSPM=Normal Mode, R1=0, TBCV=23018, SICV=2, SV=59660, SCV1=2972, SCV2=2996, SCV3=2996, SCV4=2996, SCV5=2995, SCV6=2996, SCV7=2996, SCV8=2996, SCV9=2999, SCV10=2997, SCV11=2997, SCV12=2997, SCV13=2998, SCV14=2998, SCV15=2997, SCV16=2998, SCV17=2998, SCV18=2998, SCV19=2998, SCV20=2980, SIFS=1, MOSFETSC=Enabled, MOSFETSD=Enabled, MOSFETSP=PreChargeSuccessful, OVF=0, UVF=0, OTDF=0, UTDF=0, OCDF=0, OCCF=0, SCF=0, MOSFETOTF=0, MOSFETUTF=0, AFECE=0, BOTF=0, BUTF=0, OTCF=0, UTCF=0, BTR=0, MSC=0, SBSC1=0, SBSC2=0, SBSC3=0, SBSC4=0, SBSC5=0, SBSC6=0, SBSC7=0, SBSC8=0, SBSC9=0, SBSC10=0, SBSC11=0, SBSC12=0, SBSC13=0, SBSC14=0, SBSC15=0, SBSC16=0, SBSC17=0, SBSC18=0, SBSC19=0, SBSC20=0, SBSC21=0, SBSC22=0, SBSC23=0, SBSC24=0, TBE=23261, CVM=2999, CVM=2972, TM=426, TM=403, TBE=23263, SOE=0, CW=2605, OCVC=0, TBLP=23266, AG=0, AS=125, WS=0, CC=0, DC=0, TBT=23623, SIBT=0, ST1=42.6, ST2=42.5, ST3=42.5, ST4=40.400000000000006, ST5=40.300000000000004, ST6=40.400000000000006, ST7=40.5, ST8=255, ST9=255, MOSFETT=27.5, MOSFETT2=0, BMSBT=-1, AFET1=25, AFET2=26, PT=24.3, , Time: 0.0
14-08-2023 18:02:01, CAN BUS Data:, [2972, 2996, 2996, 2996, 2995, 2996, 2996, 2996, 2999, 2997, 2997, 2997, 2998, 2998, 2997, 2998, 2998, 2998, 2998, 2980, 42.6, 42.5, 42.5, 40.400000000000006, 40.300000000000004, 40.400000000000006, 40.5, 24.3, 27.5, 144680345645155305, 1.838, 'PreChargeSuccessful', 'Enabled', 'Enabled', 0, 0, 0, 0, 0, 0, 0, 0, 0, 0, 0, 0, 0, 0], Time: 0.0
14-08-2023 18:02:06, CAN Data:, TBO=28105, PC=1.858, RC=13227083, TBMSS=28109, BMSCM=Discharge, BMSPM=Normal Mode, R1=0, TBCV=27754, SICV=2, SV=59660, SCV1=2972, SCV2=2996, SCV3=2996, SCV4=2997, SCV5=2995, SCV6=2996, SCV7=2996, SCV8=2995, SCV9=2999, SCV10=2997, SCV11=2997, SCV12=2997, SCV13=2998, SCV14=2998, SCV15=2997, SCV16=2998, SCV17=2998, SCV18=2998, SCV19=2998, SCV20=2975, SIFS=1, MOSFETSC=Enabled, MOSFETSD=Enabled, MOSFETSP=PreChargeSuccessful, OVF=0, UVF=0, OTDF=0, UTDF=0, OCDF=0, OCCF=0, SCF=0, MOSFETOTF=0, MOSFETUTF=0, AFECE=0, BOTF=0, BUTF=0, OTCF=0, UTCF=0, BTR=0, MSC=0, SBSC1=0, SBSC2=0, SBSC3=0, SBSC4=0, SBSC5=0, SBSC6=0, SBSC7=0, SBSC8=0, SBSC9=0, SBSC10=0, SBSC11=0, SBSC12=0, SBSC13=0, SBSC14=0, SBSC15=0, SBSC16=0, SBSC17=0, SBSC18=0, SBSC19=0, SBSC20=0, SBSC21=0, SBSC22=0, SBSC23=0, SBSC24=0, TBE=26622, CVM=2999, CVM=2972, TM=426, TM=403, TBE=26624, SOE=0, CW=2605, OCVC=0, TBLP=26627, AG=0, AS=127, WS=0, CC=0, DC=0, TBT=28707, SIBT=0, ST1=42.6, ST2=42.6, ST3=42.5, ST4=40.400000000000006, ST5=40.300000000000004, ST6=40.400000000000006, ST7=40.400000000000006, ST8=255, ST9=255, MOSFETT=27.400000000000002, MOSFETT2=0, BMSBT=-1, AFET1=25, AFET2=26, TBS=23628, SOC=12.2550048828125, SOH=100.0, PT=24.400000000000002, , Time: 0.0
14-08-2023 18:02:06, CAN BUS Data:, [2972, 2996, 2996, 2997, 2995, 2996, 2996, 2995, 2999, 2997, 2997, 2997, 2998, 2998, 2997, 2998, 2998, 2998, 2998, 2975, 42.6, 42.6, 42.5, 40.400000000000006, 40.300000000000004, 40.400000000000006, 40.400000000000006, 24.400000000000002, 27.400000000000002, 144680345645155305, 1.858, 'PreChargeSuccessful', 'Enabled', 'Enabled', 0, 0, 0, 0, 0, 0, 0, 0, 0, 0, 0, 0, 0, 0], Time: 0.0
14-08-2023 18:02:11, CAN Data:, TBO=33684, PC=1.858, RC=13216724, TBMSS=33688, BMSCM=Discharge, BMSPM=Normal Mode, R1=0, TBCV=33731, SICV=2, SV=59670, SCV1=2971, SCV2=2996, SCV3=2996, SCV4=2996, SCV5=2995, SCV6=2996, SCV7=2996, SCV8=2997, SCV9=2998, SCV10=2997, SCV11=2997, SCV12=2997, SCV13=2998, SCV14=2998, SCV15=2997, SCV16=2998, SCV17=2998, SCV18=2998, SCV19=2998, SCV20=2980, SIFS=1, MOSFETSC=Enabled, MOSFETSD=Enabled, MOSFETSP=PreChargeSuccessful, OVF=0, UVF=0, OTDF=0, UTDF=0, OCDF=0, OCCF=0, SCF=0, MOSFETOTF=0, MOSFETUTF=0, AFECE=0, BOTF=0, BUTF=0, OTCF=0, UTCF=0, BTR=0, MSC=0, SBSC1=0, SBSC2=0, SBSC3=0, SBSC4=0, SBSC5=0, SBSC6=0, SBSC7=0, SBSC8=0, SBSC9=0, SBSC10=0, SBSC11=0, SBSC12=0, SBSC13=0, SBSC14=0, SBSC15=0, SBSC16=0, SBSC17=0, SBSC18=0, SBSC19=0, SBSC20=0, SBSC21=0, SBSC22=0, SBSC23=0, SBSC24=0, TBE=33132, CVM=2999, CVM=2972, TM=426, TM=403, TBE=33135, SOE=0, CW=2605, OCVC=0, TBLP=33138, AG=0, AS=130, WS=0, CC=0, DC=0, TBT=33754, SIBT=0, ST1=42.5, ST2=42.5, ST3=42.5, ST4=40.400000000000006, ST5=40.400000000000006, ST6=40.400000000000006, ST7=40.5, ST8=255, ST9=255, MOSFETT=27.3, MOSFETT2=0, BMSBT=-1, AFET1=25, AFET2=26, TBS=28712, SOC=12.246264457702637, SOH=100.0, PT=24.400000000000002, , Time: 0.0
14-08-2023 18:02:11, CAN BUS Data:, [2971, 2996, 2996, 2996, 2995, 2996, 2996, 2997, 2998, 2997, 2997, 2997, 2998, 2998, 2997, 2998, 2998, 2998, 2998, 2980, 42.5, 42.5, 42.5, 40.400000000000006, 40.400000000000006, 40.400000000000006, 40.5, 24.400000000000002, 27.3, 144680345645155305, 1.858, 'PreChargeSuccessful', 'Enabled', 'Enabled', 0, 0, 0, 0, 0, 0, 0, 0, 0, 0, 0, 0, 0, 0], Time: 0.0
14-08-2023 18:02:16, CAN Data:, TBO=38518, PC=1.858, RC=13207840, TBMSS=38522, BMSCM=Discharge, BMSPM=Normal Mode, R1=0, TBCV=38522, SICV=2, SV=59660, SCV1=2972, SCV2=2996, SCV3=2996, SCV4=2996, SCV5=2995, SCV6=2996, SCV7=2996, SCV8=2996, SCV9=2997, SCV10=2997, SCV11=2997, SCV12=2997, SCV13=2998, SCV14=2998, SCV15=2997, SCV16=2998, SCV17=2998, SCV18=2998, SCV19=2998, SCV20=2980, SIFS=1, MOSFETSC=Enabled, MOSFETSD=Enabled, MOSFETSP=PreChargeSuccessful, OVF=0, UVF=0, OTDF=0, UTDF=0, OCDF=0, OCCF=0, SCF=0, MOSFETOTF=0, MOSFETUTF=0, AFECE=0, BOTF=0, BUTF=0, OTCF=0, UTCF=0, BTR=0, MSC=0, SBSC1=0, SBSC2=0, SBSC3=0, SBSC4=0, SBSC5=0, SBSC6=0, SBSC7=0, SBSC8=0, SBSC9=0, SBSC10=0, SBSC11=0, SBSC12=0, SBSC13=0, SBSC14=0, SBSC15=0, SBSC16=0, SBSC17=0, SBSC18=0, SBSC19=0, SBSC20=0, SBSC21=0, SBSC22=0, SBSC23=0, SBSC24=0, TBE=36482, CVM=2999, CVM=2972, TM=426, TM=403, TBE=36485, SOE=0, CW=2605, OCVC=0, TBLP=36488, AG=0, AS=132, WS=0, CC=0, DC=0, TBT=38874, SIBT=0, ST1=42.6, ST2=42.6, ST3=42.5, ST4=40.400000000000006, ST5=40.300000000000004, ST6=40.400000000000006, ST7=40.5, ST8=255, ST9=255, MOSFETT=27.200000000000003, MOSFETT2=0, BMSBT=-1, AFET1=25, AFET2=26, TBS=33759, SOC=12.23770809173584, SOH=100.0, PT=24.400000000000002, , Time: 0.0
14-08-2023 18:02:16, CAN BUS Data:, [2972, 2996, 2996, 2996, 2995, 2996, 2996, 2996, 2997, 2997, 2997, 2997, 2998, 2998, 2997, 2998, 2998, 2998, 2998, 2980, 42.6, 42.6, 42.5, 40.400000000000006, 40.300000000000004, 40.400000000000006, 40.5, 24.400000000000002, 27.200000000000003, 144680345645155305, 1.858, 'PreChargeSuccessful', 'Enabled', 'Enabled', 0, 0, 0, 0, 0, 0, 0, 0, 0, 0, 0, 0, 0, 0], Time: 0.0
14-08-2023 18:02:21, CAN Data:, TBO=43401, PC=1.858, RC=13198782, TBMSS=43405, BMSCM=Discharge, BMSPM=Normal Mode, R1=0, TBCV=43356, SICV=2, SV=59650, SCV1=2972, SCV2=2996, SCV3=2996, SCV4=2996, SCV5=2995, SCV6=2996, SCV7=2996, SCV8=2997, SCV9=2999, SCV10=2997, SCV11=2997, SCV12=2997, SCV13=2998, SCV14=2998, SCV15=2997, SCV16=2998, SCV17=2998, SCV18=2998, SCV19=2999, SCV20=2978, SIFS=1, MOSFETSC=Enabled, MOSFETSD=Enabled, MOSFETSP=PreChargeSuccessful, OVF=0, UVF=0, OTDF=0, UTDF=0, OCDF=0, OCCF=0, SCF=0, MOSFETOTF=0, MOSFETUTF=0, AFECE=0, BOTF=0, BUTF=0, OTCF=0, UTCF=0, BTR=0, MSC=0, SBSC1=0, SBSC2=0, SBSC3=0, SBSC4=0, SBSC5=0, SBSC6=0, SBSC7=0, SBSC8=0, SBSC9=0, SBSC10=0, SBSC11=0, SBSC12=0, SBSC13=0, SBSC14=0, SBSC15=0, SBSC16=0, SBSC17=0, SBSC18=0, SBSC19=0, SBSC20=0, SBSC21=0, SBSC22=0, SBSC23=0, SBSC24=0, TBE=43003, CVM=2999, CVM=2972, TM=426, TM=403, TBE=43006, SOE=0, CW=2605, OCVC=0, TBLP=43009, AG=0, AS=135, WS=0, CC=0, DC=0, TBT=43959, SIBT=0, ST1=42.5, ST2=42.5, ST3=42.5, ST4=40.5, ST5=40.5, ST6=40.6, ST7=40.800000000000004, ST8=255, ST9=255, MOSFETT=27.0, MOSFETT2=0, BMSBT=-1, AFET1=25, AFET2=26, TBS=38879, SOC=12.228797912597656, SOH=100.0, PT=24.400000000000002, , Time: 0.0
14-08-2023 18:02:21, CAN BUS Data:, [2972, 2996, 2996, 2996, 2995, 2996, 2996, 2997, 2999, 2997, 2997, 2997, 2998, 2998, 2997, 2998, 2998, 2998, 2999, 2978, 42.5, 42.5, 42.5, 40.5, 40.5, 40.6, 40.800000000000004, 24.400000000000002, 27.0, 144680345645155305, 1.858, 'PreChargeSuccessful', 'Enabled', 'Enabled', 0, 0, 0, 0, 0, 0, 0, 0, 0, 0, 0, 0, 0, 0], Time: 0.0
14-08-2023 18:02:21, TestNo: 15) bmsDataValidation, PASS, Time: 44.67
14-08-2023 18:02:21, sendCommandFCTBoard: 10, [36, 10, 1, 29, 29, 36, 36, 35], Time: 0.0
14-08-2023 18:02:21, TestNo: 16) buckAccuracy, PASS, Time: 0.0
14-08-2023 18:02:22, sendCommandFCTBoard: 8, [36, 8, 1, 0, 0, 0, 0, 35], Time: 0.0
14-08-2023 18:02:22, defaultModeFCT, PASS, Time: 0.0
14-08-2023 18:02:22, TestNo: 17) BMS Test Passed, PASS Test Time: 74.62, Time: 0.58
-------------------------------------------------------------------

ECUID: QRCode: VE01406231001, ECUID: 02020202002903E9
14-08-2023 18:06:23, CAN Module Found, COM11, Time: 0.0
14-08-2023 18:06:23, CC Load Present , 1, Time: 0.0
14-08-2023 18:06:23, FCTBoard Found , COM37 - USB Serial Device (COM37), Time: 0.0
14-08-2023 18:06:23, TestNo: 1) connectJlink JLINK Found, PASS, Time: 0.36
14-08-2023 18:06:23, sendCommandFCTBoard: 4, [36, 4, 1, 20, 0, 0, 0, 35], Time: 0.0
14-08-2023 18:06:23, TestNo: 2) pingFCT, PASS, Time: 0.0
14-08-2023 18:06:25, TestNo: 3) flashTestcode ./Final/Binary/BMSTestCode.hex, PASS, Time: 1.8
14-08-2023 18:06:25, sendCommandBMS: 26, [36, 26, 0, 6, 1, 0, 0, 35], Time: 0.0
14-08-2023 18:06:25, TestNo: 4) pingBMSData: 100728832, PASS, Time: 0.23
14-08-2023 18:06:25, sendCommandFCTBoard: 14, [36, 14, 1, 27, 0, 0, 0, 35], Time: 0.0
14-08-2023 18:06:25, sendCommandBMS: 43, [36, 43, 0, 0, 0, 0, 0, 35], Time: 0.0
14-08-2023 18:06:25, sendCommandFCTBoard: 15, [36, 15, 1, 0, 0, 0, 0, 35], Time: 0.0
14-08-2023 18:06:25, TestNo: 5) daughterBoard, Failed GPIO Daughter LOW, Time: 0.23
14-08-2023 18:06:26, sendCommandFCTBoard: 8, [36, 8, 1, 0, 0, 0, 0, 35], Time: 0.0
14-08-2023 18:06:26, defaultModeFCT, PASS, Time: 0.0
14-08-2023 18:06:26, TestNo: 6) BMS Test Failed, Failed Test Count: 1 Test Time: 2.62s, Time: 0.58
-------------------------------------------------------------------

ECUID: QRCode: VE01406231001, ECUID: 02020202002903E9
14-08-2023 18:06:42, CAN Module Found, COM11, Time: 0.0
14-08-2023 18:06:42, CC Load Present , 1, Time: 0.0
14-08-2023 18:06:42, FCTBoard Found , COM37 - USB Serial Device (COM37), Time: 0.0
14-08-2023 18:06:42, TestNo: 1) connectJlink JLINK Found, PASS, Time: 0.35
14-08-2023 18:06:42, sendCommandFCTBoard: 4, [36, 4, 1, 20, 0, 0, 0, 35], Time: 0.0
14-08-2023 18:06:42, TestNo: 2) pingFCT, PASS, Time: 0.0
14-08-2023 18:06:42, sendCommandBMS: 26, [36, 26, 0, 159, 67, 0, 0, 35], Time: 0.0
14-08-2023 18:06:42, TestNo: 3) pingBMSData: 2671968256, PASS, Time: 0.23
14-08-2023 18:06:42, sendCommandFCTBoard: 14, [36, 14, 1, 27, 0, 0, 0, 35], Time: 0.0
14-08-2023 18:06:42, sendCommandBMS: 43, [36, 43, 0, 0, 0, 0, 0, 35], Time: 0.0
14-08-2023 18:06:42, sendCommandFCTBoard: 15, [36, 15, 1, 0, 0, 0, 0, 35], Time: 0.0
14-08-2023 18:06:42, TestNo: 4) daughterBoard, Failed GPIO Daughter LOW, Time: 0.23
14-08-2023 18:06:43, sendCommandFCTBoard: 8, [36, 8, 1, 0, 0, 0, 0, 35], Time: 0.0
14-08-2023 18:06:43, defaultModeFCT, PASS, Time: 0.0
14-08-2023 18:06:43, TestNo: 5) BMS Test Failed, Failed Test Count: 1 Test Time: 0.81s, Time: 0.58
-------------------------------------------------------------------

ECUID: QRCode: VE01406231002, ECUID: 02020202002903EA
14-08-2023 18:08:09, CAN Module Found, COM11, Time: 0.0
14-08-2023 18:08:09, CC Load Present , 1, Time: 0.0
14-08-2023 18:08:09, FCTBoard Found , COM37 - USB Serial Device (COM37), Time: 0.0
14-08-2023 18:08:09, TestNo: 1) connectJlink JLINK Found, PASS, Time: 0.34
14-08-2023 18:08:09, sendCommandFCTBoard: 4, [36, 4, 1, 20, 0, 0, 0, 35], Time: 0.0
14-08-2023 18:08:09, TestNo: 2) pingFCT, PASS, Time: 0.0
14-08-2023 18:08:10, sendCommandBMS: 26, [36, 26, 0, 246, 25, 0, 0, 35], Time: 0.0
14-08-2023 18:08:10, TestNo: 3) pingBMSData: 4128833536, PASS, Time: 0.23
14-08-2023 18:08:10, sendCommandFCTBoard: 14, [36, 14, 1, 27, 0, 0, 0, 35], Time: 0.0
14-08-2023 18:08:10, sendCommandBMS: 43, [36, 43, 0, 0, 0, 0, 0, 35], Time: 0.0
14-08-2023 18:08:10, sendCommandFCTBoard: 15, [36, 15, 1, 0, 0, 0, 0, 35], Time: 0.0
14-08-2023 18:08:10, TestNo: 4) daughterBoard, Failed GPIO Daughter LOW, Time: 0.22
14-08-2023 18:08:10, sendCommandFCTBoard: 8, [36, 8, 1, 0, 0, 0, 0, 35], Time: 0.0
14-08-2023 18:08:10, defaultModeFCT, PASS, Time: 0.0
14-08-2023 18:08:10, TestNo: 5) BMS Test Failed, Failed Test Count: 1 Test Time: 0.79s, Time: 0.58
-------------------------------------------------------------------

ECUID: QRCode: VE01406231003, ECUID: 02020202002903EB
14-08-2023 18:09:53, CAN Module Found, COM11, Time: 0.0
14-08-2023 18:09:53, CC Load Present , 1, Time: 0.0
14-08-2023 18:09:53, FCTBoard Found , COM37 - USB Serial Device (COM37), Time: 0.0
14-08-2023 18:09:53, TestNo: 1) connectJlink JLINK Found, PASS, Time: 0.34
14-08-2023 18:09:53, sendCommandFCTBoard: 4, [36, 4, 1, 20, 0, 0, 0, 35], Time: 0.0
14-08-2023 18:09:53, TestNo: 2) pingFCT, PASS, Time: 0.0
14-08-2023 18:09:54, sendCommandBMS: 26, [36, 26, 0, 180, 175, 1, 0, 35], Time: 0.0
14-08-2023 18:09:54, TestNo: 3) pingBMSData: 3031367936, PASS, Time: 0.22
14-08-2023 18:09:54, sendCommandFCTBoard: 14, [36, 14, 1, 27, 0, 0, 0, 35], Time: 0.0
14-08-2023 18:09:54, sendCommandBMS: 43, [36, 43, 0, 0, 0, 0, 0, 35], Time: 0.0
14-08-2023 18:09:54, sendCommandFCTBoard: 15, [36, 15, 1, 0, 0, 0, 0, 35], Time: 0.0
14-08-2023 18:09:54, TestNo: 4) daughterBoard, Failed GPIO Daughter LOW, Time: 0.22
14-08-2023 18:09:54, sendCommandFCTBoard: 8, [36, 8, 1, 0, 0, 0, 0, 35], Time: 0.0
14-08-2023 18:09:54, defaultModeFCT, PASS, Time: 0.0
14-08-2023 18:09:54, TestNo: 5) BMS Test Failed, Failed Test Count: 1 Test Time: 0.78s, Time: 0.58
-------------------------------------------------------------------

ECUID: QRCode: VE01406231001, ECUID: 02020202002903E9
14-08-2023 18:14:50, CAN Module Found, COM11, Time: 0.0
14-08-2023 18:14:50, CC Load Present , 1, Time: 0.0
14-08-2023 18:14:50, FCTBoard Found , COM37 - USB Serial Device (COM37), Time: 0.0
14-08-2023 18:14:51, TestNo: 1) connectJlink JLINK Found, PASS, Time: 0.34
14-08-2023 18:14:51, sendCommandFCTBoard: 4, [36, 4, 1, 20, 0, 0, 0, 35], Time: 0.0
14-08-2023 18:14:51, TestNo: 2) pingFCT, PASS, Time: 0.0
14-08-2023 18:14:51, sendCommandBMS: 26, [36, 26, 0, 4, 57, 6, 0, 35], Time: 0.0
14-08-2023 18:14:51, TestNo: 3) pingBMSData: 70845952, PASS, Time: 0.22
14-08-2023 18:14:51, sendCommandFCTBoard: 14, [36, 14, 1, 27, 0, 0, 0, 35], Time: 0.0
14-08-2023 18:14:54, sendCommandBMS: 44, [36, 44, 0, 0, 0, 0, 0, 35], Time: 0.0
14-08-2023 18:14:54, sendCommandFCTBoard: 15, [36, 15, 1, 0, 0, 0, 1, 35], Time: 0.0
14-08-2023 18:14:54, TestNo: 4) daughterBoard, Failed GPIO Daughter LOW, Time: 3.27
14-08-2023 18:14:55, sendCommandFCTBoard: 8, [36, 8, 1, 0, 0, 0, 0, 35], Time: 0.0
14-08-2023 18:14:55, defaultModeFCT, PASS, Time: 0.0
14-08-2023 18:14:55, TestNo: 5) BMS Test Failed, Failed Test Count: 1 Test Time: 3.83s, Time: 0.58
-------------------------------------------------------------------

ECUID: QRCode: VE01406231002, ECUID: 02020202002903EA
14-08-2023 18:15:11, CAN Module Found, COM11, Time: 0.0
14-08-2023 18:15:11, CC Load Present , 1, Time: 0.0
14-08-2023 18:15:11, FCTBoard Found , COM37 - USB Serial Device (COM37), Time: 0.0
14-08-2023 18:15:11, TestNo: 1) connectJlink JLINK Found, PASS, Time: 0.34
14-08-2023 18:15:11, sendCommandFCTBoard: 4, [36, 4, 1, 20, 0, 0, 0, 35], Time: 0.0
14-08-2023 18:15:11, TestNo: 2) pingFCT, PASS, Time: 0.0
14-08-2023 18:15:11, sendCommandBMS: 26, [36, 26, 0, 72, 31, 0, 0, 35], Time: 0.0
14-08-2023 18:15:11, TestNo: 3) pingBMSData: 1209991168, PASS, Time: 0.23
14-08-2023 18:15:11, sendCommandFCTBoard: 14, [36, 14, 1, 27, 0, 0, 0, 35], Time: 0.0
14-08-2023 18:15:11, sendCommandBMS: 44, [36, 44, 0, 0, 0, 0, 0, 35], Time: 0.0
14-08-2023 18:15:11, sendCommandFCTBoard: 15, [36, 15, 1, 0, 0, 0, 1, 35], Time: 0.0
14-08-2023 18:15:11, TestNo: 4) daughterBoard, Failed GPIO Daughter LOW, Time: 0.22
14-08-2023 18:15:12, sendCommandFCTBoard: 8, [36, 8, 1, 0, 0, 0, 0, 35], Time: 0.0
14-08-2023 18:15:12, defaultModeFCT, PASS, Time: 0.0
14-08-2023 18:15:12, TestNo: 5) BMS Test Failed, Failed Test Count: 1 Test Time: 0.79s, Time: 0.58
-------------------------------------------------------------------

ECUID: QRCode: VE01406231001, ECUID: 02020202002903E9
14-08-2023 18:17:35, CAN Module Found, COM11, Time: 0.0
14-08-2023 18:17:35, CC Load Present , 1, Time: 0.0
14-08-2023 18:17:35, FCTBoard Found , COM37 - USB Serial Device (COM37), Time: 0.0
14-08-2023 18:17:36, TestNo: 1) connectJlink JLINK Found, PASS, Time: 0.35
14-08-2023 18:17:36, sendCommandFCTBoard: 4, [36, 4, 1, 20, 0, 0, 0, 35], Time: 0.0
14-08-2023 18:17:36, TestNo: 2) pingFCT, PASS, Time: 0.0
14-08-2023 18:17:36, sendCommandBMS: 26, [36, 26, 0, 51, 69, 0, 0, 35], Time: 0.0
14-08-2023 18:17:36, TestNo: 3) pingBMSData: 860160000, PASS, Time: 0.22
14-08-2023 18:17:36, sendCommandFCTBoard: 14, [36, 14, 1, 27, 0, 0, 0, 35], Time: 0.0
14-08-2023 18:17:40, TestNo: 4) daughterBoard, Error Communication BMS PIN_HIGH_1650, Time: 4.09
14-08-2023 18:17:40, sendCommandFCTBoard: 8, [36, 8, 1, 0, 0, 0, 0, 35], Time: 0.0
14-08-2023 18:17:40, defaultModeFCT, PASS, Time: 0.0
14-08-2023 18:17:40, TestNo: 5) BMS Test Failed, Failed Test Count: 1 Test Time: 4.66s, Time: 0.58
-------------------------------------------------------------------

ECUID: QRCode: VE01406231002, ECUID: 02020202002903EA
14-08-2023 18:20:14, CAN Module Found, COM11, Time: 0.0
14-08-2023 18:20:14, CC Load Present , 1, Time: 0.0
14-08-2023 18:20:14, FCTBoard Found , COM37 - USB Serial Device (COM37), Time: 0.0
14-08-2023 18:20:15, TestNo: 1) connectJlink JLINK Found, PASS, Time: 0.34
14-08-2023 18:20:15, sendCommandFCTBoard: 4, [36, 4, 1, 20, 0, 0, 0, 35], Time: 0.0
14-08-2023 18:20:15, TestNo: 2) pingFCT, PASS, Time: 0.0
14-08-2023 18:20:15, sendCommandBMS: 26, [36, 26, 0, 199, 25, 0, 0, 35], Time: 0.0
14-08-2023 18:20:15, TestNo: 3) pingBMSData: 3340304384, PASS, Time: 0.22
14-08-2023 18:20:15, sendCommandFCTBoard: 14, [36, 14, 1, 27, 0, 0, 0, 35], Time: 0.0
14-08-2023 18:20:15, sendCommandBMS: 44, [36, 44, 0, 0, 0, 0, 0, 35], Time: 0.0
14-08-2023 18:20:15, sendCommandFCTBoard: 15, [36, 15, 1, 0, 0, 0, 1, 35], Time: 0.0
14-08-2023 18:20:15, TestNo: 4) daughterBoard, Failed GPIO Daughter LOW, Time: 0.22
14-08-2023 18:20:16, sendCommandFCTBoard: 8, [36, 8, 1, 0, 0, 0, 0, 35], Time: 0.0
14-08-2023 18:20:16, defaultModeFCT, PASS, Time: 0.0
14-08-2023 18:20:16, TestNo: 5) BMS Test Failed, Failed Test Count: 1 Test Time: 0.78s, Time: 0.58
-------------------------------------------------------------------

ECUID: QRCode: VE01406231001, ECUID: 02020202002903E9
14-08-2023 18:21:12, CAN Module Found, COM11, Time: 0.0
14-08-2023 18:21:12, CC Load Present , 1, Time: 0.0
14-08-2023 18:21:12, FCTBoard Found , COM37 - USB Serial Device (COM37), Time: 0.0
14-08-2023 18:21:12, TestNo: 1) connectJlink JLINK Found, PASS, Time: 0.33
14-08-2023 18:21:12, sendCommandFCTBoard: 4, [36, 4, 1, 20, 0, 0, 0, 35], Time: 0.0
14-08-2023 18:21:12, TestNo: 2) pingFCT, PASS, Time: 0.0
14-08-2023 18:21:12, sendCommandBMS: 26, [36, 26, 0, 90, 249, 0, 0, 35], Time: 0.0
14-08-2023 18:21:12, TestNo: 3) pingBMSData: 1526267904, PASS, Time: 0.23
14-08-2023 18:21:12, sendCommandFCTBoard: 14, [36, 14, 1, 27, 0, 0, 0, 35], Time: 0.0
14-08-2023 18:21:12, sendCommandBMS: 44, [36, 44, 0, 0, 0, 0, 0, 35], Time: 0.0
14-08-2023 18:21:17, sendCommandFCTBoard: 15, [36, 15, 1, 0, 0, 0, 1, 35], Time: 0.0
14-08-2023 18:21:17, TestNo: 4) daughterBoard, Failed GPIO Daughter LOW, Time: 5.23
14-08-2023 18:21:18, sendCommandFCTBoard: 8, [36, 8, 1, 0, 0, 0, 0, 35], Time: 0.0
14-08-2023 18:21:18, defaultModeFCT, PASS, Time: 0.0
14-08-2023 18:21:18, TestNo: 5) BMS Test Failed, Failed Test Count: 1 Test Time: 5.79s, Time: 0.58
-------------------------------------------------------------------

ECUID: QRCode: VE01406231002, ECUID: 02020202002903EA
14-08-2023 18:30:10, CAN Module Found, COM11, Time: 0.0
14-08-2023 18:30:10, CC Load Present , 1, Time: 0.0
14-08-2023 18:30:10, FCTBoard Found , COM37 - USB Serial Device (COM37), Time: 0.0
14-08-2023 18:30:11, TestNo: 1) connectJlink JLINK Found, PASS, Time: 0.34
14-08-2023 18:30:11, sendCommandFCTBoard: 4, [36, 4, 1, 20, 0, 0, 0, 35], Time: 0.0
14-08-2023 18:30:11, TestNo: 2) pingFCT, PASS, Time: 0.0
14-08-2023 18:30:11, sendCommandBMS: 26, [36, 26, 0, 205, 25, 0, 0, 35], Time: 0.0
14-08-2023 18:30:11, TestNo: 3) pingBMSData: 3440967680, PASS, Time: 0.23
14-08-2023 18:30:11, sendCommandFCTBoard: 14, [36, 14, 1, 27, 0, 0, 0, 35], Time: 0.0
14-08-2023 18:30:11, sendCommandBMS: 44, [36, 44, 0, 0, 0, 0, 0, 35], Time: 0.0
14-08-2023 18:30:16, sendCommandFCTBoard: 15, [36, 15, 1, 0, 0, 0, 1, 35], Time: 0.0
14-08-2023 18:30:16, TestNo: 4) daughterBoard, Failed GPIO Daughter LOW, Time: 5.23
14-08-2023 18:30:17, sendCommandFCTBoard: 8, [36, 8, 1, 0, 0, 0, 0, 35], Time: 0.0
14-08-2023 18:30:17, defaultModeFCT, PASS, Time: 0.0
14-08-2023 18:30:17, TestNo: 5) BMS Test Failed, Failed Test Count: 1 Test Time: 5.8s, Time: 0.59
-------------------------------------------------------------------

ECUID: QRCode: VE01406231001, ECUID: 02020202002903E9
14-08-2023 18:30:55, CAN Module Found, COM11, Time: 0.0
14-08-2023 18:30:55, CC Load Present , 1, Time: 0.0
14-08-2023 18:30:55, FCTBoard Found , COM37 - USB Serial Device (COM37), Time: 0.0
14-08-2023 18:30:56, TestNo: 1) connectJlink JLINK Found, PASS, Time: 0.35
14-08-2023 18:30:56, sendCommandFCTBoard: 4, [36, 4, 1, 20, 0, 0, 0, 35], Time: 0.0
14-08-2023 18:30:56, TestNo: 2) pingFCT, PASS, Time: 0.0
14-08-2023 18:30:56, sendCommandBMS: 26, [36, 26, 0, 42, 39, 0, 0, 35], Time: 0.0
14-08-2023 18:30:56, TestNo: 3) pingBMSData: 707198976, PASS, Time: 0.22
14-08-2023 18:30:56, sendCommandFCTBoard: 14, [36, 14, 1, 27, 0, 0, 0, 35], Time: 0.0
14-08-2023 18:30:56, sendCommandBMS: 44, [36, 44, 0, 0, 0, 0, 0, 35], Time: 0.0
14-08-2023 18:31:01, sendCommandFCTBoard: 15, [36, 15, 1, 0, 0, 0, 1, 35], Time: 0.0
14-08-2023 18:31:01, TestNo: 4) daughterBoard, Failed GPIO Daughter LOW, Time: 5.22
14-08-2023 18:31:02, sendCommandFCTBoard: 8, [36, 8, 1, 0, 0, 0, 0, 35], Time: 0.0
14-08-2023 18:31:02, defaultModeFCT, PASS, Time: 0.0
14-08-2023 18:31:02, TestNo: 5) BMS Test Failed, Failed Test Count: 1 Test Time: 5.79s, Time: 0.58
-------------------------------------------------------------------

ECUID: QRCode: VE01406231002, ECUID: 02020202002903EA
14-08-2023 18:33:24, CAN Module Found, COM11, Time: 0.0
14-08-2023 18:33:24, CC Load Present , 1, Time: 0.0
14-08-2023 18:33:24, FCTBoard Found , COM37 - USB Serial Device (COM37), Time: 0.0
14-08-2023 18:33:25, TestNo: 1) connectJlink JLINK Found, PASS, Time: 0.35
14-08-2023 18:33:25, sendCommandFCTBoard: 4, [36, 4, 1, 20, 0, 0, 0, 35], Time: 0.0
14-08-2023 18:33:25, TestNo: 2) pingFCT, PASS, Time: 0.0
14-08-2023 18:33:25, sendCommandBMS: 26, [36, 26, 0, 31, 108, 2, 0, 35], Time: 0.0
14-08-2023 18:33:25, TestNo: 3) pingBMSData: 527172096, PASS, Time: 0.22
14-08-2023 18:33:25, sendCommandFCTBoard: 14, [36, 14, 1, 27, 0, 0, 0, 35], Time: 0.0
14-08-2023 18:33:29, TestNo: 4) daughterBoard, Error Communication BMS PIN_HIGH_1650, Time: 4.1
14-08-2023 18:33:29, sendCommandFCTBoard: 8, [36, 8, 1, 0, 0, 0, 0, 35], Time: 0.0
14-08-2023 18:33:29, defaultModeFCT, PASS, Time: 0.0
14-08-2023 18:33:29, TestNo: 5) BMS Test Failed, Failed Test Count: 1 Test Time: 4.67s, Time: 0.59
