Timestamp, QRCode, ECUID,initTestSetup, pingFCT, chargeMosfetSC, emulatorON, flashTestcode, pingBMS, initAFEs, norFlashEEPROM, flashECUID, packFusePin, CANStandByPin, mcuFlash, bmsDataValidation, buckAccuracy, Result, 
07-08-2023 15:48:30, VE01406231001, 0x02020202002903E9, No CAN device found, Error Code: , 
07-08-2023 15:49:02, VE01406231001, 0x02020202002903E9, PASS, PASS, PASS, PASS, PASS, PASS, PASS, PASS, PASS 02020202 002903E9, PASS, PASS, PASS, Accuracy Error EC: 0, PASS, Failed Test Count: 1 Test Time: 63.2s, 
07-08-2023 15:53:37, VE01406231001, 0x02020202002903E9, PASS, PASS, PASS, PASS, PASS, PASS, PASS, PASS, PASS 02020202 002903E9, PASS, PASS, PASS, Accuracy Error EC: 7, PASS, Failed Test Count: 1 Test Time: 48.19s, 
07-08-2023 16:15:45, VE01406231001, 0x02020202002903E9, PASS, PASS, PASS, PASS, PASS, PASS, PASS, PASS, PASS 02020202 002903E9, PASS, PASS, PASS, Accuracy Error EC: 7, PASS, Failed Test Count: 1 Test Time: 48.29s, 
07-08-2023 16:30:40, VE01406231001, 0x02020202002903E9, PASS, PASS, PASS, PASS, Make Sure device is connected, Exception: Unspecified error., 
07-08-2023 19:29:07, VE01406231001, 0x02020202002903E9, Reconnect the test module and try again, Error Code: 1, 
