17-08-2023 09:13:59, VE01406231001, 0x02020202002903E9, PASS, PASS, PASS, PASS, PASS, PASS, PASS, PASS 02020202 002903E9, PASS, PASS, PASS G: 1004 _ O: -30918, PASS, Test Failed AFE 1 OFF, 
17-08-2023 09:15:37, VE01406231001, 0x02020202002903E9, PASS, PASS, Failed 1.7505, PASS, Make Sure device is connected, Exception: Unspecified error., 
17-08-2023 09:24:31, VE01406231002, 0x02020202002903EA, PASS, PASS, Failed 1.6232, PASS, Make Sure device is connected, Exception: Unspecified error., 
17-08-2023 09:25:05, VE01406231003, 0x02020202002903EB, PASS, PASS, PASS, PASS, PASS, PASS, PASS, PASS 02020202 002903EB, PASS, PASS, PASS G: 1052 _ O: -16641, PASS, Test Failed AFE 1 OFF, 
17-08-2023 09:26:14, VE01406231004, 0x02020202002903EC, PASS, PASS, Failed 0.2447, PASS, PASS, PASS, PASS, PASS 02020202 002903EC, PASS, PASS, PASS G: 1004 _ O: -14790, PASS, PASS, PASS, PASS, Accuracy Error EC: Precharge_Temp, PASS, Failed Test Count: 2 Test Time: 82.23s, 
17-08-2023 09:29:50, VE01406231001, 0x02020202002903E9, PASS, PASS, PASS, PASS, PASS, PASS, Error Communication BMS, PASS 02020202 002903E9, PASS, PASS, PASS G: 1052 _ O: -1975, PASS, PASS, PASS, PASS, Accuracy Error EC: PackCurrent, PASS, Failed Test Count: 2 Test Time: 98.28s, 
17-08-2023 09:31:44, VE01406231002, 0x02020202002903EA, PASS, PASS, PASS, PASS, PASS, PASS, Error Communication BMS, PASS 02020202 002903EA, PASS, PASS, PASS G: 1004 _ O: 2287, PASS, PASS, PASS, PASS, Accuracy Error EC: PackCurrent, PASS, Failed Test Count: 2 Test Time: 98.37s, 
17-08-2023 09:35:49, VE01406231001, 0x02020202002903E9, PASS, PASS, PASS, PASS, PASS, PASS, PASS, Error Communication BMS, PASS 02020202 002903E9, PASS, PASS G: 1052 _ O: 15911, PASS, PASS, PASS, PASS, Accuracy Error EC: PackCurrent, PASS, Failed Test Count: 2 Test Time: 98.16s, 
17-08-2023 09:41:25, VE01406231001, 0x02020202002903E9, PASS, PASS, PASS, PASS, Error Communication BMS, Failed Test Count: 1 Test Time: 17.6s, 
17-08-2023 09:42:08, VE01406231002, 0x02020202002903EA, PASS, PASS, PASS, PASS, Error Communication BMS, Failed Test Count: 1 Test Time: 17.65s, 
17-08-2023 10:00:06, VE01406231003, 0x02020202002903EB, PASS, PASS, PASS, PASS, PASS, PASS Test Time: 1.93, 
17-08-2023 10:11:13, VE01406231004, 0x02020202002903EC, PASS, PASS, PASS, PASS, PASS, PASS Test Time: 2.38, 
17-08-2023 10:14:23, VE01406231001, 0x02020202002903E9, PASS, PASS, PASS, PASS, PASS, PASS, PASS, PASS 02020202 002903E9, PASS, PASS, PASS G: 995 _ O: 8957, PASS, PASS, PASS, PASS, Accuracy Error EC: PackCurrent, PASS, Failed Test Count: 1 Test Time: 82.0s, 
17-08-2023 10:39:06, VE01406231001, 0x02020202002903E9, PASS, PASS, PASS, PASS, PASS, PASS, PASS, PASS 02020202 002903E9, PASS, PASS, PASS G: 995 _ O: 8957, PASS, PASS, PASS, PASS, Precharge Fail, PASS, Failed Test Count: 1 Test Time: 74.15s, 
17-08-2023 11:00:38, VE01406231001, 0x02020202002903E9, PASS, PASS, PASS, PASS, PASS, PASS, PASS, PASS 02020202 002903E9, PASS, PASS, PASS G: 996 _ O: 3983, PASS, PASS, PASS, PASS, Accuracy Error EC: PackCurrent, PASS, Failed Test Count: 1 Test Time: 68.52s, 
17-08-2023 11:06:45, VE01406231001, 0x02020202002903E9, No CAN device found, Error Code: could not open port 'COM11': PermissionError(13, 'Access is denied.', None, 5), 
17-08-2023 11:07:03, VE01406231002, 0x02020202002903EA, PASS, PASS, PASS, PASS, PASS, PASS, PASS, PASS 02020202 002903EA, PASS, PASS, PASS G: 997 _ O: -2993, PASS, PASS, PASS, PASS, Accuracy Error EC: Precharge_Temp, PASS, Failed Test Count: 1 Test Time: 68.11s, 
17-08-2023 11:40:21, VE01406231001, 0x02020202002903E9, PASS, PASS, PASS, PASS, PASS, PASS, Error Communication BMS CHG_FET_OFF_CFET, 
17-08-2023 11:43:22, VE01406231002, 0x02020202002903EA, PASS, PASS, PASS, PASS, PASS, PASS, Error Communication BMS CHG_FET_OFF_CFET, 
17-08-2023 11:44:43, VE01406231001, 0x02020202002903E9, PASS, PASS, PASS, PASS, PASS, Error Communication BMS CHG_FET_OFF_CFET, 
17-08-2023 11:47:51, VE01406231001, 0x02020202002903E9, PASS, PASS, PASS, PASS, PASS, Error Communication BMS H_WAKE_FROM_MCU, 
17-08-2023 11:59:28, VE01406231002, 0x02020202002903EA, PASS, PASS, PASS, PASS, PASS, Error Communication BMS H_WAKE_FROM_MCU, 
17-08-2023 12:09:32, VE01406231003, 0x02020202002903EB, PASS, PASS, PASS, PASS, PASS, Error Communication BMS H_WAKE_FROM_MCU, 
17-08-2023 12:14:52, VE01406231001, 0x02020202002903E9, PASS, PASS, PASS, PASS, Request Denied, 
17-08-2023 12:15:13, VE01406231001, 0x02020202002903E9, PASS, PASS, PASS, PASS, Request Denied, 
17-08-2023 12:28:06, VE01406231002, 0x02020202002903EA, 
17-08-2023 12:28:31, VE01406231003, 0x02020202002903EB, 
17-08-2023 12:28:45, VE01406231001, 0x02020202002903E9, Reconnect the test module and try again, Error Code: 1, 
17-08-2023 12:29:11, VE01406231002, 0x02020202002903EA, Reconnect the test module and try again, Error Code: 1, 
17-08-2023 12:29:21, VE01406231001, 0x02020202002903E9, PASS, PASS, PASS, PASS, Request Denied, 
17-08-2023 12:30:01, VE01406231002, 0x02020202002903EA, PASS, PASS, PASS, PASS, Request Denied, 
17-08-2023 12:36:38, VE01406231003, 0x02020202002903EB, PASS, PASS, PASS, PASS, PASS, Test Failed AFE 1 OFF, 
17-08-2023 12:48:21, VE01406231004, 0x02020202002903EC, PASS, PASS, PASS, PASS, PASS, Test Failed AFE 1 OFF, 
17-08-2023 12:50:31, VE01406231005, 0x02020202002903ED, PASS, PASS, PASS, PASS, PASS, Test Failed AFE 1 OFF, 
17-08-2023 12:50:57, VE01406231006, 0x02020202002903EE, PASS, PASS, PASS, PASS, PASS, Test Failed AFE 1 OFF, 
17-08-2023 12:51:59, VE01406231001, 0x02020202002903E9, PASS, PASS, PASS, PASS, PASS, Test Failed AFE 1 OFF, 
17-08-2023 12:52:33, VE01406231002, 0x02020202002903EA, PASS, PASS, PASS, PASS, PASS, Test Failed AFE 1 OFF, 
17-08-2023 12:54:51, VE01406231003, 0x02020202002903EB, PASS, PASS, PASS, PASS, PASS, Test Failed AFE 1 OFF, 
17-08-2023 12:55:18, VE01406231004, 0x02020202002903EC, PASS, PASS, PASS, PASS, PASS, Test Failed AFE 1 OFF, 
17-08-2023 14:58:29, VE01406231001, 0x02020202002903E9, PASS, PASS, PASS, PASS, Request Denied, 
17-08-2023 14:59:13, VE01406231002, 0x02020202002903EA, PASS, PASS, PASS, PASS, Request Denied, 
17-08-2023 14:59:35, VE01406231003, 0x02020202002903EB, PASS, PASS, PASS, PASS, PASS, Test Failed AFE 1 OFF, 
17-08-2023 15:02:47, VE01406231004, 0x02020202002903EC, PASS, PASS, PASS, PASS, Request Denied, 
17-08-2023 15:03:08, VE01406231005, 0x02020202002903ED, PASS, PASS, PASS, PASS, PASS, PASS, PASS Test Time: 13.78, 
17-08-2023 15:11:47, VE01406231006, 0x02020202002903EE, PASS, PASS, PASS, PASS, Request Denied, 
17-08-2023 15:12:05, VE01406231007, 0x02020202002903EF, PASS, PASS, PASS, PASS, Request Denied, 
17-08-2023 15:12:18, VE01406231001, 0x02020202002903E9, PASS, PASS, PASS, PASS, Request Denied, 
17-08-2023 15:12:42, VE01406231002, 0x02020202002903EA, PASS, PASS, PASS, PASS, PASS, PASS, PASS Test Time: 13.79, 
17-08-2023 15:14:02, VE01406231001, 0x02020202002903E9, PASS, PASS, PASS, PASS, PASS, PASS, PASS, PASS 02020202 002903E9, PASS, PASS, PASS G: 996 _ O: 3983, PASS, Error Communication BMS CHG_FET_OFF_CFET, 
17-08-2023 15:17:20, VE01406231001, 0x02020202002903E9, PASS, PASS, Failed 0.1816, PASS, PASS, PASS, PASS, PASS 02020202 002903E9, PASS, PASS, PASS G: 996 _ O: 3983, PASS, PASS, PASS, PASS, PASS, PASS, Accuracy Error EC: Precharge_Temp, PASS, Failed Test Count: 2 Test Time: 89.52s, 
17-08-2023 15:19:22, VE01406231001, 0x02020202002903E9, PASS, PASS, PASS, PASS, PASS, PASS, PASS, PASS 02020202 002903E9, PASS, PASS, PASS G: 996 _ O: 3983, PASS, PASS, PASS, PASS, PASS, PASS, Accuracy Error EC: PackCurrent, PASS, Failed Test Count: 1 Test Time: 92.75s, 
17-08-2023 15:26:56, VE01406231001, 0x02020202002903E9, PASS, PASS, PASS, PASS, PASS, PASS, PASS, PASS 02020202 002903E9, PASS, PASS, PASS G: 995 _ O: 8957, PASS, PASS, PASS, PASS, PASS, PASS, Accuracy Error EC: PackCurrent, PASS, Failed Test Count: 1 Test Time: 92.74s, 
17-08-2023 15:31:55, VE01406231001, 0x02020202002903E9, PASS, PASS, PASS, PASS, PASS, PASS, PASS, PASS 02020202 002903E9, PASS, PASS, PASS G: 995 _ O: 8957, PASS, PASS, PASS, PASS, PASS, PASS, Accuracy Error EC: PackCurrent, PASS, Failed Test Count: 1 Test Time: 96.76s, 
17-08-2023 15:36:11, VE01406231001, 0x02020202002903E9, PASS, PASS, PASS, PASS, Error Communication BMS CALIBRATION_VALUE, Failed Test Count: 1 Test Time: 9.27s, 
17-08-2023 15:37:49, VE01406231002, 0x02020202002903EA, PASS, PASS, PASS, PASS, Request Denied CALIBRATION_VALUE, Failed Test Count: 1 Test Time: 5.8s, 
17-08-2023 15:38:07, VE01406231003, 0x02020202002903EB, PASS, PASS, PASS, PASS, Request Denied CALIBRATION_VALUE, Failed Test Count: 1 Test Time: 5.79s, 
17-08-2023 15:40:38, VE01406231001, 0x02020202002903E9, PASS, PASS, PASS, PASS, Request Denied CALIBRATION_VALUE, Failed Test Count: 1 Test Time: 5.81s, 
17-08-2023 15:41:56, VE01406231001, 0x02020202002903E9, PASS, PASS, PASS, PASS, Request Denied CALIBRATION_VALUE, Failed Test Count: 1 Test Time: 5.92s, 
17-08-2023 15:44:15, VE01406231001, 0x02020202002903E9, PASS, PASS, PASS, PASS, Error Communication BMS CALIBRATION_VALUE, Failed Test Count: 1 Test Time: 9.28s, 
17-08-2023 15:49:24, VE01406231002, 0x02020202002903EA, PASS, PASS, PASS, PASS, Error Communication BMS CALIBRATION_VALUE, Failed Test Count: 1 Test Time: 9.36s, 
17-08-2023 15:50:55, VE01406231001, 0x02020202002903E9, PASS, PASS, PASS, PASS, PASS, Error Communication BMS CALIBRATION_VALUE, Failed Test Count: 1 Test Time: 10.37s, 
17-08-2023 15:59:26, VE01406231002, 0x02020202002903EA, PASS, PASS, PASS, PASS, PASS, Request Denied CALIBRATION_GAIN, Failed Test Count: 1 Test Time: 11.77s, 
17-08-2023 16:02:48, VE01406231001, 0x02020202002903E9, PASS, PASS, PASS, PASS, PASS, PASS, PASS 02020202 002903E9, PASS, PASS, PASS G: 1056 _ O: 3168, PASS, PASS, PASS, PASS, PASS, PASS, Accuracy Error EC: Precharge_Temp, PASS, Failed Test Count: 1 Test Time: 90.94s, 
17-08-2023 16:05:46, VE01406231001, 0x02020202002903E9, PASS, PASS, PASS, PASS, PASS, PASS, PASS, PASS 02020202 002903E9, PASS, PASS, PASS G: 1055 _ O: 7391, PASS, PASS, PASS, PASS, PASS, PASS, PASS, PASS, PASS Test Time: 102.86, 
17-08-2023 16:14:06, VE01406231001, 0x02020202002903E9, PASS, PASS, PASS, PASS, PASS, PASS, PASS, PASS 02020202 002903E9, PASS, PASS, PASS G: 1056 _ O: 5281, PASS, Test Failed AFE 2 OFF, 
17-08-2023 16:19:53, VE01406231001, 0x02020202002903E9, PASS, PASS, PASS, PASS, PASS, PASS, PASS, PASS 02020202 002903E9, PASS, PASS, PASS G: 1055 _ O: 7391, PASS, PASS, PASS, PASS, PASS, PASS, PASS, PASS, PASS Test Time: 102.36, 
17-08-2023 16:22:42, VE01406231001, 0x02020202002903E9, PASS, PASS, PASS, PASS, PASS, PASS, PASS, PASS 02020202 002903E9, PASS, PASS, PASS G: 1056 _ O: 5281, PASS, Failed GPIO Daughter LOW, PASS, PASS, PASS, PASS, PASS, PASS, PASS, Failed Test Count: 1 Test Time: 103.33s, 
17-08-2023 16:44:41, VE01406231001, 0x02020202002903E9, PASS, PASS, PASS, PASS, Failed GPIO Daughter LOW, Failed Test Count: 1 Test Time: 2.56s, 
17-08-2023 16:45:24, VE01406231001, 0x02020202002903E9, PASS, PASS, PASS, Failed GPIO Daughter LOW, Failed Test Count: 1 Test Time: 0.78s, 
17-08-2023 16:47:14, VE01406231001, 0x02020202002903E9, PASS, PASS, PASS, Error Communication BMS PIN_HIGH_1650, Failed Test Count: 1 Test Time: 4.55s, 
17-08-2023 16:50:58, VE01406231002, 0x02020202002903EA, PASS, PASS, PASS, Failed GPIO Daughter LOW, Failed Test Count: 1 Test Time: 0.78s, 
17-08-2023 16:51:41, VE01406231001, 0x02020202002903E9, PASS, PASS, PASS, Failed GPIO Daughter LOW, Failed Test Count: 1 Test Time: 5.79s, 
17-08-2023 17:25:18, VE01406231002, 0x02020202002903EA, PASS, PASS, PASS, TEST Failed 5v ON DAUGHTER 18, Failed Test Count: 1 Test Time: 0.58s, 
17-08-2023 17:25:33, VE01406231003, 0x02020202002903EB, PASS, PASS, PASS, TEST Failed 5v ON DAUGHTER 19, Failed Test Count: 1 Test Time: 0.58s, 
17-08-2023 17:25:55, VE01406231004, 0x02020202002903EC, PASS, PASS, PASS, TEST Failed 5v ON DAUGHTER 16, Failed Test Count: 1 Test Time: 0.57s, 
17-08-2023 17:26:10, VE01406231005, 0x02020202002903ED, PASS, PASS, PASS, Error Communication FCT Board DAUGHTER_BOARD_5V, Failed Test Count: 1 Test Time: 18.4s, 
17-08-2023 17:27:12, VE01406231006, 0x02020202002903EE, PASS, PASS, PASS, 
17-08-2023 17:27:36, VE01406231007, 0x02020202002903EF, PASS, PASS, PASS, TEST Failed 5v ON DAUGHTER 19, Failed Test Count: 1 Test Time: 0.58s, 
17-08-2023 17:28:06, VE01406231008, 0x02020202002903F0, PASS, PASS, PASS, TEST Failed 5v ON DAUGHTER 20, Failed Test Count: 1 Test Time: 0.56s, 
17-08-2023 17:31:40, VE01406231009, 0x02020202002903F1, PASS, PASS, PASS, TEST Failed 5v ON DAUGHTER 19, Failed Test Count: 1 Test Time: 0.59s, 
17-08-2023 17:50:43, VE01406231001, 0x02020202002903E9, Check Load power and connection, Error Code: 2, 
17-08-2023 17:51:01, VE01406231001, 0x02020202002903E9, PASS, PASS, PASS, PASS, PASS, PASS, PASS, PASS 02020202 002903E9, PASS, PASS, PASS G: 1056 _ O: 5281, PASS, PASS, PASS, PASS, PASS, PASS, Accuracy Error EC: Precharge_Temp, PASS, Failed Test Count: 1 Test Time: 92.1s, 
