Timestamp, QRCode, ECUID,initTestSetup, pingFCT, chargeMosfetSC, emulatorON, flashTestcode, pingBMS, initAFEs, norFlashEEPROM, flashECUID, packFusePin, CANStandByPin, mcuFlash, bmsDataValidation, buckAccuracy, Result, 
08-08-2023 11:40:24, VE01406231001, 0x02020202002903E9, Reconnect the test module and try again, Error Code: 1, 
08-08-2023 11:44:12, VE01406231001, 0x02020202002903E9, PASS, PASS, PASS, PASS, PASS, PASS, PASS, PASS, PASS 02020202 002903E9, PASS, PASS, PASS, Precharge Fail, 
08-08-2023 11:53:20, VE01406231002, 0x02020202002903EA, PASS, PASS, PASS, PASS, PASS, PASS, PASS, PASS, PASS 02020202 002903EA, PASS, PASS, PASS, Accuracy Error EC: 7, PASS, Failed Test Count: 1 Test Time: 48.35s, 
08-08-2023 12:08:17, VE01406231001, 0x02020202002903E9, No CAN device found, Error Code: could not open port 'COM11': PermissionError(13, 'Access is denied.', None, 5), 
08-08-2023 12:08:33, VE01406231002, 0x02020202002903EA, PASS, PASS, PASS, PASS, PASS, PASS, PASS, PASS, PASS 02020202 002903EA, PASS, PASS, PASS, Accuracy Error EC: 7, PASS, Failed Test Count: 1 Test Time: 48.34s, 
08-08-2023 17:22:15, VE01406231001, 0x02020202002903E9, PASS, PASS, PASS, PASS, PASS, PASS, PASS, PASS, PASS 02020202 002903E9, PASS, Current Gain OoB G: 4294967295 , O: -1, PASS, PASS, Accuracy Error EC: 7, PASS, Failed Test Count: 2 Test Time: 53.0s, 
08-08-2023 17:41:34, VE01406231001, 0x02020202002903E9, PASS, PASS, PASS, PASS, PASS, PASS, PASS, PASS, PASS 02020202 002903E9, PASS, PASS, PASS, Accuracy Error EC: 7, PASS, Failed Test Count: 1 Test Time: 48.06s, 
08-08-2023 17:53:37, VE01406231001, 0x02020202002903E9, PASS, PASS, PASS, PASS, PASS, PASS, PASS, PASS, PASS 02020202 002903E9, PASS, PASS, PASS, Accuracy Error EC: 7, PASS, Failed Test Count: 1 Test Time: 48.32s, 
08-08-2023 18:00:52, VE01406231001, 0x02020202002903E9, PASS, PASS, PASS, PASS, PASS, PASS, PASS, PASS, PASS 02020202 002903E9, PASS, PASS, PASS, Accuracy Error EC: 7, PASS, Failed Test Count: 1 Test Time: 48.34s, 
08-08-2023 18:07:11, VE01406231001, 0x02020202002903E9, PASS, PASS, PASS, PASS, PASS, PASS, PASS, PASS, PASS 02020202 002903E9, PASS, PASS, PASS, Accuracy Error EC: 7, PASS, Failed Test Count: 1 Test Time: 48.31s, 
