-------------------------------------------------------------------

ECUID: QRCode: VE01406231001, ECUID: 02020202002903E9
03-08-2023 16:44:23, CAN Module Found, COM11, Time: 0.0
03-08-2023 16:44:23, TestNo: 1) initTestSetup, PASS, Time: 0.02
03-08-2023 16:44:23, CAN BUS Key:, [['StacknCellVoltage_1', 3430, 50], ['StacknCellVoltage_2', 3380, 50], ['StacknCellVoltage_3', 3393, 50], ['StacknCellVoltage_4', 3032, 50], ['StacknCellVoltage_5', 3228, 50], ['StacknCellVoltage_6', 3151, 50], ['StacknCellVoltage_7', 3158, 50], ['StacknCellVoltage_8', 3161, 50], ['StacknCellVoltage_9', 3322, 50], ['StacknCellVoltage_10', 3293, 50], ['StacknCellVoltage_11', 3105, 50], ['StacknCellVoltage_12', 3151, 50], ['StacknCellVoltage_13', 3322, 50], ['StacknCellVoltage_14', 3238, 50], ['StacknCellVoltage_15', 3250, 50], ['StacknCellVoltage_16', 3336, 50], ['StacknCellVoltage_17', 3365, 50], ['StacknCellVoltage_18', 3440, 50], ['StacknCellVoltage_19', 3250, 50], ['StacknCellVoltage_20', 3268, 50], ['Stack_Temp1', 41, 20], ['Stack_Temp2', 41, 20], ['Stack_Temp3', 41, 20], ['Stack_Temp4', 41, 20], ['Precharge_Temp', 25, 20], ['MOSFET_Temp', 25, 20], ['ECUSerialNumber_Part1', 144680345645155305, 0], ['PackCurrent', 2, 0.5], ['MOSFETStatusPrecharge', 'PreChargeFailed', 0], ['MOSFETStatusCharge', 'Enabled', 0], ['MOSFETStatusDischarge', 'Disabled', 0], ['OverVoltageFault', 0, 0], ['UnderVoltageFault', 0, 0], ['OverCurrentDischargeFault', 0, 0], ['OverCurrentChargeFault', 0, 0], ['ShortCircuitFault', 0, 0], ['MOSFETOverTemperatureFault', 0, 0], ['MOSFETUnderTemperatureFault', 0, 0]], Time: 0.0
03-08-2023 16:44:53, TestNo: 2) bmsDataValidation, Accuracy Error EC: -3, Time: 30.71
03-08-2023 16:44:53, TestNo: 3) BMS Test Failed, Failed Test Count: 1 Test Time: 30.73s, Time: 0.0
