Timestamp, QRCode, ECUID,initTestSetup, bmsDataValidation, Result, 
28-07-2023 16:27:44, VE01406231001, 0x02020202002903E9, PASS, Accuracy Error EC: 27, Failed Test Count: 1 Test Time: 28.59s, 
28-07-2023 16:30:55, VE01406231001, 0x02020202002903E9, PASS, Accuracy Error EC: 27, Failed Test Count: 1 Test Time: 29.71s, 
28-07-2023 16:38:28, VE01406231001, 0x02020202002903E9, PASS, Accuracy Error EC: 29, Failed Test Count: 1 Test Time: 29.35s, 
28-07-2023 16:42:01, VE01406231001, 0x02020202002903E9, PASS, Accuracy Error EC: 29, Failed Test Count: 1 Test Time: 28.34s, 
28-07-2023 16:47:41, VE01406231001, 0x02020202002903E9, PASS, PASS, PASS Test Time: 44.16, 
28-07-2023 17:12:19, VE01406231001, 0x02020202002903E9, PASS, PASS, PASS Test Time: 44.07, 
