Timestamp, QRCode, ECUID,initTestSetup, bmsDataValidation, Result, 
04-08-2023 11:35:48, VE01406231001, 0x02020202002903E9, No CAN device found, Error Code: , 04-08-2023 11:35:53, VE01406231002, 0x02020202002903EA, No CAN device found, Error Code: , 04-08-2023 11:37:23, VE01406231003, 0x02020202002903EB, No CAN device found, Error Code: , 04-08-2023 12:39:17, VE01406231001, 0x02020202002903E9, No CAN device found, Error Code: , Failed Test Count: 1 Test Time: 0.0s, 
04-08-2023 12:40:27, VE01406231001, 0x02020202002903E9, No CAN device found, Error Code: , 
04-08-2023 12:40:35, VE01406231002, 0x02020202002903EA, No CAN device found, Error Code: , 
04-08-2023 12:40:41, VE01406231003, 0x02020202002903EB, No CAN device found, Error Code: , 
