-------------------------------------------------------------------

ECUID: QRCode: VE01406231001, ECUID: 02020202002903E9
07-09-2023 13:32:06, TestNo: 1) Daughter Board Test Passed, PASS Test Time: 0, Time: 0.0
-------------------------------------------------------------------

ECUID: QRCode: VE01406231002, ECUID: 02020202002903EA
07-09-2023 13:32:13, TestNo: 1) Daughter Board Test Passed, PASS Test Time: 0, Time: 0.0
-------------------------------------------------------------------

ECUID: QRCode: VE01406231003, ECUID: 02020202002903EB
07-09-2023 13:32:21, TestNo: 1) Daughter Board Test Passed, PASS Test Time: 0, Time: 0.0
-------------------------------------------------------------------

ECUID: QRCode: VE01406231004, ECUID: 02020202002903EC
07-09-2023 13:32:35, TestNo: 1) Daughter Board Test Passed, PASS Test Time: 0, Time: 0.0
