31-08-2023 14:08:23, VE01406231001, 0x02020202002903E9, PASS, Accuracy Error EC: OverTemperatureDischargeFault, Failed Test Count: 1 Test Time: 40.02s, 
31-08-2023 14:09:26, VE01406231002, 0x02020202002903EA, PASS, Accuracy Error EC: StacknCellVoltage_16, Failed Test Count: 1 Test Time: 7.34s, 
31-08-2023 14:09:58, VE01406231003, 0x02020202002903EB, PASS, Accuracy Error EC: StacknCellVoltage_16, Failed Test Count: 1 Test Time: 6.79s, 
31-08-2023 14:16:28, VE01406231001, 0x02020202002903E9, PASS, Accuracy Error EC: Stack_Temp1, Failed Test Count: 1 Test Time: 6.62s, 
31-08-2023 14:21:01, VE01406231002, 0x02020202002903EA, PASS, Accuracy Error EC: Stack_Temp1, Failed Test Count: 1 Test Time: 7.51s, 
